^A:\USERS\GOAT\MY DOCUMENTS\VISUAL STUDIO 2013\PROJECTS\DIAMOND SQUARE ALGORITHM\DIAMOND SQUARE ALGORITHM\MAIN.CPP
/c /I"A:\Users\Goat\My Documents\Visual Studio 2013\Projects\Diamond Square Algorithm\packages\glm.0.9.6.1\build\native\../..//build/native/include/" /Zi /nologo /W3 /WX- /sdl /Od /D WIN32 /D _DEBUG /D _CONSOLE /D _LIB /D _UNICODE /D UNICODE /Gm /EHsc /RTC1 /MDd /GS /fp:precise /Zc:wchar_t /Zc:forScope /Fo"X64\DEBUG\\" /Fd"X64\DEBUG\VC120.PDB" /Gd /TP A:\USERS\GOAT\MY DOCUMENTS\VISUAL STUDIO 2013\PROJECTS\DIAMOND SQUARE ALGORITHM\DIAMOND SQUARE ALGORITHM\MAIN.CPP
^A:\USERS\GOAT\MY DOCUMENTS\VISUAL STUDIO 2013\PROJECTS\DIAMOND SQUARE ALGORITHM\DIAMOND SQUARE ALGORITHM\SHADERLOADER.CPP
/c /Zi /nologo /W3 /WX- /sdl /Od /D WIN32 /D _DEBUG /D _CONSOLE /D _LIB /D _UNICODE /D UNICODE /Gm /EHsc /RTC1 /MDd /GS /fp:precise /Zc:wchar_t /Zc:forScope /Fo"X64\DEBUG\\" /Fd"X64\DEBUG\VC120.PDB" /Gd /TP A:\USERS\GOAT\MY DOCUMENTS\VISUAL STUDIO 2013\PROJECTS\DIAMOND SQUARE ALGORITHM\DIAMOND SQUARE ALGORITHM\SHADERLOADER.CPP
^A:\USERS\GOAT\MY DOCUMENTS\VISUAL STUDIO 2013\PROJECTS\DIAMOND SQUARE ALGORITHM\DIAMOND SQUARE ALGORITHM\CORE\SHADERLOADER.CPP
/c /I"A:\Users\Goat\My Documents\Visual Studio 2013\Projects\Diamond Square Algorithm\packages\glm.0.9.6.1\build\native\../..//build/native/include/" /Zi /nologo /W3 /WX- /sdl /Od /D WIN32 /D _DEBUG /D _CONSOLE /D _LIB /D _UNICODE /D UNICODE /Gm /EHsc /RTC1 /MDd /GS /fp:precise /Zc:wchar_t /Zc:forScope /Fo"X64\DEBUG\\" /Fd"X64\DEBUG\VC120.PDB" /Gd /TP A:\USERS\GOAT\MY DOCUMENTS\VISUAL STUDIO 2013\PROJECTS\DIAMOND SQUARE ALGORITHM\DIAMOND SQUARE ALGORITHM\CORE\SHADERLOADER.CPP
^A:\USERS\GOAT\MY DOCUMENTS\VISUAL STUDIO 2013\PROJECTS\DIAMOND SQUARE ALGORITHM\DIAMOND SQUARE ALGORITHM\CORE\GAMEMODELS.CPP
/c /I"A:\Users\Goat\My Documents\Visual Studio 2013\Projects\Diamond Square Algorithm\packages\glm.0.9.6.1\build\native\../..//build/native/include/" /Zi /nologo /W3 /WX- /sdl /Od /D WIN32 /D _DEBUG /D _CONSOLE /D _LIB /D _UNICODE /D UNICODE /Gm /EHsc /RTC1 /MDd /GS /fp:precise /Zc:wchar_t /Zc:forScope /Fo"X64\DEBUG\\" /Fd"X64\DEBUG\VC120.PDB" /Gd /TP A:\USERS\GOAT\MY DOCUMENTS\VISUAL STUDIO 2013\PROJECTS\DIAMOND SQUARE ALGORITHM\DIAMOND SQUARE ALGORITHM\CORE\GAMEMODELS.CPP
^A:\USERS\GOAT\MY DOCUMENTS\VISUAL STUDIO 2013\PROJECTS\DIAMOND SQUARE ALGORITHM\DIAMOND SQUARE ALGORITHM\MARCHINGCUBES\MARCHINGCUBES.CPP
/c /I"A:\Users\Goat\My Documents\Visual Studio 2013\Projects\Diamond Square Algorithm\packages\glm.0.9.6.1\build\native\../..//build/native/include/" /Zi /nologo /W3 /WX- /sdl /Od /D WIN32 /D _DEBUG /D _CONSOLE /D _LIB /D _UNICODE /D UNICODE /Gm /EHsc /RTC1 /MDd /GS /fp:precise /Zc:wchar_t /Zc:forScope /Fo"X64\DEBUG\\" /Fd"X64\DEBUG\VC120.PDB" /Gd /TP A:\USERS\GOAT\MY DOCUMENTS\VISUAL STUDIO 2013\PROJECTS\DIAMOND SQUARE ALGORITHM\DIAMOND SQUARE ALGORITHM\MARCHINGCUBES\MARCHINGCUBES.CPP
