^A:\USERS\GOAT\MY DOCUMENTS\VISUAL STUDIO 2013\PROJECTS\DIAMOND SQUARE ALGORITHM\DIAMOND SQUARE ALGORITHM\MAIN.CPP
A:\PROGRAM FILES (X86)\MICROSOFT VISUAL STUDIO 12.0\VC\BIN\X86_AMD64\1033\CLUI.DLL
C:\WINDOWS\GLOBALIZATION\SORTING\SORTDEFAULT.NLS
C:\WINDOWS\SYSTEM32\RSAENH.DLL
C:\WINDOWS\SYSTEM32\TZRES.DLL
A:\PROGRAM FILES (X86)\MICROSOFT VISUAL STUDIO 12.0\VC\INCLUDE\IOSTREAM
A:\PROGRAM FILES (X86)\MICROSOFT VISUAL STUDIO 12.0\VC\INCLUDE\ISTREAM
A:\PROGRAM FILES (X86)\MICROSOFT VISUAL STUDIO 12.0\VC\INCLUDE\OSTREAM
A:\PROGRAM FILES (X86)\MICROSOFT VISUAL STUDIO 12.0\VC\INCLUDE\IOS
A:\PROGRAM FILES (X86)\MICROSOFT VISUAL STUDIO 12.0\VC\INCLUDE\XLOCNUM
A:\PROGRAM FILES (X86)\MICROSOFT VISUAL STUDIO 12.0\VC\INCLUDE\CLIMITS
A:\PROGRAM FILES (X86)\MICROSOFT VISUAL STUDIO 12.0\VC\INCLUDE\YVALS.H
A:\PROGRAM FILES (X86)\MICROSOFT VISUAL STUDIO 12.0\VC\INCLUDE\XKEYCHECK.H
A:\PROGRAM FILES (X86)\MICROSOFT VISUAL STUDIO 12.0\VC\INCLUDE\CRTDEFS.H
A:\PROGRAM FILES (X86)\MICROSOFT VISUAL STUDIO 12.0\VC\INCLUDE\SAL.H
A:\PROGRAM FILES (X86)\MICROSOFT VISUAL STUDIO 12.0\VC\INCLUDE\CONCURRENCYSAL.H
A:\PROGRAM FILES (X86)\MICROSOFT VISUAL STUDIO 12.0\VC\INCLUDE\VADEFS.H
A:\PROGRAM FILES (X86)\MICROSOFT VISUAL STUDIO 12.0\VC\INCLUDE\USE_ANSI.H
A:\PROGRAM FILES (X86)\MICROSOFT VISUAL STUDIO 12.0\VC\INCLUDE\LIMITS.H
A:\PROGRAM FILES (X86)\MICROSOFT VISUAL STUDIO 12.0\VC\INCLUDE\CMATH
A:\PROGRAM FILES (X86)\MICROSOFT VISUAL STUDIO 12.0\VC\INCLUDE\MATH.H
A:\PROGRAM FILES (X86)\MICROSOFT VISUAL STUDIO 12.0\VC\INCLUDE\XTGMATH.H
A:\PROGRAM FILES (X86)\MICROSOFT VISUAL STUDIO 12.0\VC\INCLUDE\XTR1COMMON
A:\PROGRAM FILES (X86)\MICROSOFT VISUAL STUDIO 12.0\VC\INCLUDE\CSTDIO
A:\PROGRAM FILES (X86)\MICROSOFT VISUAL STUDIO 12.0\VC\INCLUDE\STDIO.H
A:\PROGRAM FILES (X86)\MICROSOFT VISUAL STUDIO 12.0\VC\INCLUDE\SWPRINTF.INL
A:\PROGRAM FILES (X86)\MICROSOFT VISUAL STUDIO 12.0\VC\INCLUDE\CSTDLIB
A:\PROGRAM FILES (X86)\MICROSOFT VISUAL STUDIO 12.0\VC\INCLUDE\STDLIB.H
A:\PROGRAM FILES (X86)\MICROSOFT VISUAL STUDIO 12.0\VC\INCLUDE\STREAMBUF
A:\PROGRAM FILES (X86)\MICROSOFT VISUAL STUDIO 12.0\VC\INCLUDE\XIOSBASE
A:\PROGRAM FILES (X86)\MICROSOFT VISUAL STUDIO 12.0\VC\INCLUDE\XLOCALE
A:\PROGRAM FILES (X86)\MICROSOFT VISUAL STUDIO 12.0\VC\INCLUDE\CSTRING
A:\PROGRAM FILES (X86)\MICROSOFT VISUAL STUDIO 12.0\VC\INCLUDE\STRING.H
A:\PROGRAM FILES (X86)\MICROSOFT VISUAL STUDIO 12.0\VC\INCLUDE\STDEXCEPT
A:\PROGRAM FILES (X86)\MICROSOFT VISUAL STUDIO 12.0\VC\INCLUDE\EXCEPTION
A:\PROGRAM FILES (X86)\MICROSOFT VISUAL STUDIO 12.0\VC\INCLUDE\XSTDDEF
A:\PROGRAM FILES (X86)\MICROSOFT VISUAL STUDIO 12.0\VC\INCLUDE\CSTDDEF
A:\PROGRAM FILES (X86)\MICROSOFT VISUAL STUDIO 12.0\VC\INCLUDE\STDDEF.H
A:\PROGRAM FILES (X86)\MICROSOFT VISUAL STUDIO 12.0\VC\INCLUDE\INITIALIZER_LIST
A:\PROGRAM FILES (X86)\MICROSOFT VISUAL STUDIO 12.0\VC\INCLUDE\EH.H
A:\PROGRAM FILES (X86)\MICROSOFT VISUAL STUDIO 12.0\VC\INCLUDE\MALLOC.H
A:\PROGRAM FILES (X86)\MICROSOFT VISUAL STUDIO 12.0\VC\INCLUDE\XSTRING
A:\PROGRAM FILES (X86)\MICROSOFT VISUAL STUDIO 12.0\VC\INCLUDE\XMEMORY0
A:\PROGRAM FILES (X86)\MICROSOFT VISUAL STUDIO 12.0\VC\INCLUDE\LIMITS
A:\PROGRAM FILES (X86)\MICROSOFT VISUAL STUDIO 12.0\VC\INCLUDE\YMATH.H
A:\PROGRAM FILES (X86)\MICROSOFT VISUAL STUDIO 12.0\VC\INCLUDE\CFLOAT
A:\PROGRAM FILES (X86)\MICROSOFT VISUAL STUDIO 12.0\VC\INCLUDE\FLOAT.H
A:\PROGRAM FILES (X86)\MICROSOFT VISUAL STUDIO 12.0\VC\INCLUDE\CRTWRN.H
A:\PROGRAM FILES (X86)\MICROSOFT VISUAL STUDIO 12.0\VC\INCLUDE\CWCHAR
A:\PROGRAM FILES (X86)\MICROSOFT VISUAL STUDIO 12.0\VC\INCLUDE\WCHAR.H
A:\PROGRAM FILES (X86)\MICROSOFT VISUAL STUDIO 12.0\VC\INCLUDE\WTIME.INL
A:\PROGRAM FILES (X86)\MICROSOFT VISUAL STUDIO 12.0\VC\INCLUDE\NEW
A:\PROGRAM FILES (X86)\MICROSOFT VISUAL STUDIO 12.0\VC\INCLUDE\XUTILITY
A:\PROGRAM FILES (X86)\MICROSOFT VISUAL STUDIO 12.0\VC\INCLUDE\UTILITY
A:\PROGRAM FILES (X86)\MICROSOFT VISUAL STUDIO 12.0\VC\INCLUDE\IOSFWD
A:\PROGRAM FILES (X86)\MICROSOFT VISUAL STUDIO 12.0\VC\INCLUDE\CRTDBG.H
A:\PROGRAM FILES (X86)\MICROSOFT VISUAL STUDIO 12.0\VC\INCLUDE\TYPE_TRAITS
A:\PROGRAM FILES (X86)\MICROSOFT VISUAL STUDIO 12.0\VC\INCLUDE\XREFWRAP
A:\PROGRAM FILES (X86)\MICROSOFT VISUAL STUDIO 12.0\VC\INCLUDE\XATOMIC0.H
A:\PROGRAM FILES (X86)\MICROSOFT VISUAL STUDIO 12.0\VC\INCLUDE\INTRIN.H
A:\PROGRAM FILES (X86)\MICROSOFT VISUAL STUDIO 12.0\VC\INCLUDE\SETJMP.H
A:\PROGRAM FILES (X86)\MICROSOFT VISUAL STUDIO 12.0\VC\INCLUDE\IMMINTRIN.H
A:\PROGRAM FILES (X86)\MICROSOFT VISUAL STUDIO 12.0\VC\INCLUDE\WMMINTRIN.H
A:\PROGRAM FILES (X86)\MICROSOFT VISUAL STUDIO 12.0\VC\INCLUDE\NMMINTRIN.H
A:\PROGRAM FILES (X86)\MICROSOFT VISUAL STUDIO 12.0\VC\INCLUDE\SMMINTRIN.H
A:\PROGRAM FILES (X86)\MICROSOFT VISUAL STUDIO 12.0\VC\INCLUDE\TMMINTRIN.H
A:\PROGRAM FILES (X86)\MICROSOFT VISUAL STUDIO 12.0\VC\INCLUDE\PMMINTRIN.H
A:\PROGRAM FILES (X86)\MICROSOFT VISUAL STUDIO 12.0\VC\INCLUDE\EMMINTRIN.H
A:\PROGRAM FILES (X86)\MICROSOFT VISUAL STUDIO 12.0\VC\INCLUDE\XMMINTRIN.H
A:\PROGRAM FILES (X86)\MICROSOFT VISUAL STUDIO 12.0\VC\INCLUDE\MMINTRIN.H
A:\PROGRAM FILES (X86)\MICROSOFT VISUAL STUDIO 12.0\VC\INCLUDE\AMMINTRIN.H
A:\PROGRAM FILES (X86)\MICROSOFT VISUAL STUDIO 12.0\VC\INCLUDE\TYPEINFO
A:\PROGRAM FILES (X86)\MICROSOFT VISUAL STUDIO 12.0\VC\INCLUDE\XLOCINFO
A:\PROGRAM FILES (X86)\MICROSOFT VISUAL STUDIO 12.0\VC\INCLUDE\XLOCINFO.H
A:\PROGRAM FILES (X86)\MICROSOFT VISUAL STUDIO 12.0\VC\INCLUDE\CTYPE.H
A:\PROGRAM FILES (X86)\MICROSOFT VISUAL STUDIO 12.0\VC\INCLUDE\LOCALE.H
A:\PROGRAM FILES (X86)\MICROSOFT VISUAL STUDIO 12.0\VC\INCLUDE\XDEBUG
A:\PROGRAM FILES (X86)\MICROSOFT VISUAL STUDIO 12.0\VC\INCLUDE\XMEMORY
A:\PROGRAM FILES (X86)\MICROSOFT VISUAL STUDIO 12.0\VC\INCLUDE\XFACET
A:\PROGRAM FILES (X86)\MICROSOFT VISUAL STUDIO 12.0\VC\INCLUDE\SYSTEM_ERROR
A:\PROGRAM FILES (X86)\MICROSOFT VISUAL STUDIO 12.0\VC\INCLUDE\CERRNO
A:\PROGRAM FILES (X86)\MICROSOFT VISUAL STUDIO 12.0\VC\INCLUDE\ERRNO.H
A:\PROGRAM FILES (X86)\MICROSOFT VISUAL STUDIO 12.0\VC\INCLUDE\SHARE.H
A:\USERS\GOAT\MY DOCUMENTS\VISUAL STUDIO 2013\PROJECTS\DIAMOND SQUARE ALGORITHM\DIAMOND SQUARE ALGORITHM\DEPENDENCIES\GLEW\GLEW.H
C:\PROGRAM FILES (X86)\WINDOWS KITS\8.1\INCLUDE\UM\GL\GLU.H
C:\PROGRAM FILES (X86)\WINDOWS KITS\8.1\INCLUDE\SHARED\WINAPIFAMILY.H
C:\PROGRAM FILES (X86)\WINDOWS KITS\8.1\INCLUDE\UM\GL\GL.H
A:\USERS\GOAT\MY DOCUMENTS\VISUAL STUDIO 2013\PROJECTS\DIAMOND SQUARE ALGORITHM\DIAMOND SQUARE ALGORITHM\DEPENDENCIES\FREEGLUT\FREEGLUT.H
A:\USERS\GOAT\MY DOCUMENTS\VISUAL STUDIO 2013\PROJECTS\DIAMOND SQUARE ALGORITHM\DIAMOND SQUARE ALGORITHM\DEPENDENCIES\FREEGLUT\FREEGLUT_STD.H
C:\PROGRAM FILES (X86)\WINDOWS KITS\8.1\INCLUDE\UM\WINDOWS.H
C:\PROGRAM FILES (X86)\WINDOWS KITS\8.1\INCLUDE\SHARED\SDKDDKVER.H
A:\PROGRAM FILES (X86)\MICROSOFT VISUAL STUDIO 12.0\VC\INCLUDE\EXCPT.H
A:\PROGRAM FILES (X86)\MICROSOFT VISUAL STUDIO 12.0\VC\INCLUDE\STDARG.H
C:\PROGRAM FILES (X86)\WINDOWS KITS\8.1\INCLUDE\SHARED\WINDEF.H
C:\PROGRAM FILES (X86)\WINDOWS KITS\8.1\INCLUDE\SHARED\MINWINDEF.H
C:\PROGRAM FILES (X86)\WINDOWS KITS\8.1\INCLUDE\SHARED\SPECSTRINGS.H
C:\PROGRAM FILES (X86)\WINDOWS KITS\8.1\INCLUDE\SHARED\SPECSTRINGS_STRICT.H
C:\PROGRAM FILES (X86)\WINDOWS KITS\8.1\INCLUDE\SHARED\SPECSTRINGS_UNDEF.H
C:\PROGRAM FILES (X86)\WINDOWS KITS\8.1\INCLUDE\SHARED\DRIVERSPECS.H
C:\PROGRAM FILES (X86)\WINDOWS KITS\8.1\INCLUDE\SHARED\SDV_DRIVERSPECS.H
C:\PROGRAM FILES (X86)\WINDOWS KITS\8.1\INCLUDE\UM\WINNT.H
C:\PROGRAM FILES (X86)\WINDOWS KITS\8.1\INCLUDE\SHARED\KERNELSPECS.H
C:\PROGRAM FILES (X86)\WINDOWS KITS\8.1\INCLUDE\SHARED\BASETSD.H
C:\PROGRAM FILES (X86)\WINDOWS KITS\8.1\INCLUDE\SHARED\GUIDDEF.H
C:\PROGRAM FILES (X86)\WINDOWS KITS\8.1\INCLUDE\SHARED\PSHPACK4.H
C:\PROGRAM FILES (X86)\WINDOWS KITS\8.1\INCLUDE\SHARED\POPPACK.H
C:\PROGRAM FILES (X86)\WINDOWS KITS\8.1\INCLUDE\SHARED\PSHPACK2.H
C:\PROGRAM FILES (X86)\WINDOWS KITS\8.1\INCLUDE\SHARED\PSHPACK8.H
C:\PROGRAM FILES (X86)\WINDOWS KITS\8.1\INCLUDE\SHARED\APISET.H
C:\PROGRAM FILES (X86)\WINDOWS KITS\8.1\INCLUDE\SHARED\KTMTYPES.H
C:\PROGRAM FILES (X86)\WINDOWS KITS\8.1\INCLUDE\UM\WINBASE.H
C:\PROGRAM FILES (X86)\WINDOWS KITS\8.1\INCLUDE\SHARED\APISETCCONV.H
C:\PROGRAM FILES (X86)\WINDOWS KITS\8.1\INCLUDE\UM\MINWINBASE.H
C:\PROGRAM FILES (X86)\WINDOWS KITS\8.1\INCLUDE\UM\PROCESSENV.H
C:\PROGRAM FILES (X86)\WINDOWS KITS\8.1\INCLUDE\UM\FILEAPI.H
C:\PROGRAM FILES (X86)\WINDOWS KITS\8.1\INCLUDE\UM\DEBUGAPI.H
C:\PROGRAM FILES (X86)\WINDOWS KITS\8.1\INCLUDE\UM\UTILAPISET.H
C:\PROGRAM FILES (X86)\WINDOWS KITS\8.1\INCLUDE\UM\HANDLEAPI.H
C:\PROGRAM FILES (X86)\WINDOWS KITS\8.1\INCLUDE\UM\ERRHANDLINGAPI.H
C:\PROGRAM FILES (X86)\WINDOWS KITS\8.1\INCLUDE\UM\FIBERSAPI.H
C:\PROGRAM FILES (X86)\WINDOWS KITS\8.1\INCLUDE\UM\NAMEDPIPEAPI.H
C:\PROGRAM FILES (X86)\WINDOWS KITS\8.1\INCLUDE\UM\PROFILEAPI.H
C:\PROGRAM FILES (X86)\WINDOWS KITS\8.1\INCLUDE\UM\HEAPAPI.H
C:\PROGRAM FILES (X86)\WINDOWS KITS\8.1\INCLUDE\UM\IOAPISET.H
C:\PROGRAM FILES (X86)\WINDOWS KITS\8.1\INCLUDE\UM\SYNCHAPI.H
C:\PROGRAM FILES (X86)\WINDOWS KITS\8.1\INCLUDE\UM\INTERLOCKEDAPI.H
C:\PROGRAM FILES (X86)\WINDOWS KITS\8.1\INCLUDE\UM\PROCESSTHREADSAPI.H
C:\PROGRAM FILES (X86)\WINDOWS KITS\8.1\INCLUDE\UM\SYSINFOAPI.H
C:\PROGRAM FILES (X86)\WINDOWS KITS\8.1\INCLUDE\UM\MEMORYAPI.H
C:\PROGRAM FILES (X86)\WINDOWS KITS\8.1\INCLUDE\UM\THREADPOOLLEGACYAPISET.H
C:\PROGRAM FILES (X86)\WINDOWS KITS\8.1\INCLUDE\UM\THREADPOOLAPISET.H
C:\PROGRAM FILES (X86)\WINDOWS KITS\8.1\INCLUDE\UM\BEMAPISET.H
C:\PROGRAM FILES (X86)\WINDOWS KITS\8.1\INCLUDE\UM\JOBAPI.H
C:\PROGRAM FILES (X86)\WINDOWS KITS\8.1\INCLUDE\UM\WOW64APISET.H
C:\PROGRAM FILES (X86)\WINDOWS KITS\8.1\INCLUDE\UM\LIBLOADERAPI.H
C:\PROGRAM FILES (X86)\WINDOWS KITS\8.1\INCLUDE\UM\SECURITYBASEAPI.H
C:\PROGRAM FILES (X86)\WINDOWS KITS\8.1\INCLUDE\UM\NAMESPACEAPI.H
C:\PROGRAM FILES (X86)\WINDOWS KITS\8.1\INCLUDE\UM\SYSTEMTOPOLOGYAPI.H
C:\PROGRAM FILES (X86)\WINDOWS KITS\8.1\INCLUDE\UM\PROCESSTOPOLOGYAPI.H
C:\PROGRAM FILES (X86)\WINDOWS KITS\8.1\INCLUDE\UM\SECURITYAPPCONTAINER.H
C:\PROGRAM FILES (X86)\WINDOWS KITS\8.1\INCLUDE\UM\REALTIMEAPISET.H
C:\PROGRAM FILES (X86)\WINDOWS KITS\8.1\INCLUDE\SHARED\WINERROR.H
C:\PROGRAM FILES (X86)\WINDOWS KITS\8.1\INCLUDE\UM\TIMEZONEAPI.H
C:\PROGRAM FILES (X86)\WINDOWS KITS\8.1\INCLUDE\UM\WINGDI.H
C:\PROGRAM FILES (X86)\WINDOWS KITS\8.1\INCLUDE\SHARED\PSHPACK1.H
C:\PROGRAM FILES (X86)\WINDOWS KITS\8.1\INCLUDE\UM\WINUSER.H
C:\PROGRAM FILES (X86)\WINDOWS KITS\8.1\INCLUDE\SHARED\TVOUT.H
C:\PROGRAM FILES (X86)\WINDOWS KITS\8.1\INCLUDE\UM\WINNLS.H
C:\PROGRAM FILES (X86)\WINDOWS KITS\8.1\INCLUDE\UM\DATETIMEAPI.H
C:\PROGRAM FILES (X86)\WINDOWS KITS\8.1\INCLUDE\UM\STRINGAPISET.H
C:\PROGRAM FILES (X86)\WINDOWS KITS\8.1\INCLUDE\UM\WINCON.H
C:\PROGRAM FILES (X86)\WINDOWS KITS\8.1\INCLUDE\UM\CONSOLEAPI.H
C:\PROGRAM FILES (X86)\WINDOWS KITS\8.1\INCLUDE\UM\WINVER.H
C:\PROGRAM FILES (X86)\WINDOWS KITS\8.1\INCLUDE\UM\VERRSRC.H
C:\PROGRAM FILES (X86)\WINDOWS KITS\8.1\INCLUDE\UM\WINREG.H
C:\PROGRAM FILES (X86)\WINDOWS KITS\8.1\INCLUDE\UM\REASON.H
C:\PROGRAM FILES (X86)\WINDOWS KITS\8.1\INCLUDE\UM\WINNETWK.H
C:\PROGRAM FILES (X86)\WINDOWS KITS\8.1\INCLUDE\SHARED\WNNC.H
C:\PROGRAM FILES (X86)\WINDOWS KITS\8.1\INCLUDE\SHARED\STRALIGN.H
C:\PROGRAM FILES (X86)\WINDOWS KITS\8.1\INCLUDE\UM\WINSVC.H
C:\PROGRAM FILES (X86)\WINDOWS KITS\8.1\INCLUDE\UM\MCX.H
C:\PROGRAM FILES (X86)\WINDOWS KITS\8.1\INCLUDE\UM\IMM.H
C:\PROGRAM FILES (X86)\WINDOWS KITS\8.1\INCLUDE\UM\IME_CMODES.H
A:\USERS\GOAT\MY DOCUMENTS\VISUAL STUDIO 2013\PROJECTS\DIAMOND SQUARE ALGORITHM\DIAMOND SQUARE ALGORITHM\DEPENDENCIES\FREEGLUT\FREEGLUT_EXT.H
A:\PROGRAM FILES (X86)\MICROSOFT VISUAL STUDIO 12.0\VC\BIN\MSPDBSRV.EXE
A:\PROGRAM FILES (X86)\MICROSOFT VISUAL STUDIO 12.0\VC\INCLUDE\FSTREAM
A:\PROGRAM FILES (X86)\MICROSOFT VISUAL STUDIO 12.0\VC\INCLUDE\VECTOR
A:\USERS\GOAT\MY DOCUMENTS\VISUAL STUDIO 2013\PROJECTS\DIAMOND SQUARE ALGORITHM\DIAMOND SQUARE ALGORITHM\CORE\SHADERLOADER.H
A:\USERS\GOAT\MY DOCUMENTS\VISUAL STUDIO 2013\PROJECTS\DIAMOND SQUARE ALGORITHM\DIAMOND SQUARE ALGORITHM\CORE\VERTEXHEADER.H
A:\USERS\GOAT\MY DOCUMENTS\VISUAL STUDIO 2013\PROJECTS\DIAMOND SQUARE ALGORITHM\PACKAGES\GLM.0.9.6.1\BUILD\NATIVE\INCLUDE\GLM\GLM.HPP
A:\USERS\GOAT\MY DOCUMENTS\VISUAL STUDIO 2013\PROJECTS\DIAMOND SQUARE ALGORITHM\PACKAGES\GLM.0.9.6.1\BUILD\NATIVE\INCLUDE\GLM\DETAIL\_FIXES.HPP
A:\PROGRAM FILES (X86)\MICROSOFT VISUAL STUDIO 12.0\VC\INCLUDE\CASSERT
A:\PROGRAM FILES (X86)\MICROSOFT VISUAL STUDIO 12.0\VC\INCLUDE\ASSERT.H
A:\USERS\GOAT\MY DOCUMENTS\VISUAL STUDIO 2013\PROJECTS\DIAMOND SQUARE ALGORITHM\PACKAGES\GLM.0.9.6.1\BUILD\NATIVE\INCLUDE\GLM\FWD.HPP
A:\USERS\GOAT\MY DOCUMENTS\VISUAL STUDIO 2013\PROJECTS\DIAMOND SQUARE ALGORITHM\PACKAGES\GLM.0.9.6.1\BUILD\NATIVE\INCLUDE\GLM\DETAIL\TYPE_INT.HPP
A:\USERS\GOAT\MY DOCUMENTS\VISUAL STUDIO 2013\PROJECTS\DIAMOND SQUARE ALGORITHM\PACKAGES\GLM.0.9.6.1\BUILD\NATIVE\INCLUDE\GLM\DETAIL\SETUP.HPP
A:\PROGRAM FILES (X86)\MICROSOFT VISUAL STUDIO 12.0\VC\INCLUDE\CSTDINT
A:\PROGRAM FILES (X86)\MICROSOFT VISUAL STUDIO 12.0\VC\INCLUDE\STDINT.H
A:\USERS\GOAT\MY DOCUMENTS\VISUAL STUDIO 2013\PROJECTS\DIAMOND SQUARE ALGORITHM\PACKAGES\GLM.0.9.6.1\BUILD\NATIVE\INCLUDE\GLM\DETAIL\TYPE_FLOAT.HPP
A:\USERS\GOAT\MY DOCUMENTS\VISUAL STUDIO 2013\PROJECTS\DIAMOND SQUARE ALGORITHM\PACKAGES\GLM.0.9.6.1\BUILD\NATIVE\INCLUDE\GLM\DETAIL\TYPE_VEC.HPP
A:\USERS\GOAT\MY DOCUMENTS\VISUAL STUDIO 2013\PROJECTS\DIAMOND SQUARE ALGORITHM\PACKAGES\GLM.0.9.6.1\BUILD\NATIVE\INCLUDE\GLM\DETAIL\PRECISION.HPP
A:\USERS\GOAT\MY DOCUMENTS\VISUAL STUDIO 2013\PROJECTS\DIAMOND SQUARE ALGORITHM\PACKAGES\GLM.0.9.6.1\BUILD\NATIVE\INCLUDE\GLM\DETAIL\TYPE_MAT.HPP
A:\USERS\GOAT\MY DOCUMENTS\VISUAL STUDIO 2013\PROJECTS\DIAMOND SQUARE ALGORITHM\PACKAGES\GLM.0.9.6.1\BUILD\NATIVE\INCLUDE\GLM\VEC2.HPP
A:\USERS\GOAT\MY DOCUMENTS\VISUAL STUDIO 2013\PROJECTS\DIAMOND SQUARE ALGORITHM\PACKAGES\GLM.0.9.6.1\BUILD\NATIVE\INCLUDE\GLM\DETAIL\TYPE_VEC2.HPP
A:\USERS\GOAT\MY DOCUMENTS\VISUAL STUDIO 2013\PROJECTS\DIAMOND SQUARE ALGORITHM\PACKAGES\GLM.0.9.6.1\BUILD\NATIVE\INCLUDE\GLM\DETAIL\TYPE_VEC2.INL
A:\USERS\GOAT\MY DOCUMENTS\VISUAL STUDIO 2013\PROJECTS\DIAMOND SQUARE ALGORITHM\PACKAGES\GLM.0.9.6.1\BUILD\NATIVE\INCLUDE\GLM\VEC3.HPP
A:\USERS\GOAT\MY DOCUMENTS\VISUAL STUDIO 2013\PROJECTS\DIAMOND SQUARE ALGORITHM\PACKAGES\GLM.0.9.6.1\BUILD\NATIVE\INCLUDE\GLM\DETAIL\TYPE_VEC3.HPP
A:\USERS\GOAT\MY DOCUMENTS\VISUAL STUDIO 2013\PROJECTS\DIAMOND SQUARE ALGORITHM\PACKAGES\GLM.0.9.6.1\BUILD\NATIVE\INCLUDE\GLM\DETAIL\TYPE_VEC3.INL
A:\USERS\GOAT\MY DOCUMENTS\VISUAL STUDIO 2013\PROJECTS\DIAMOND SQUARE ALGORITHM\PACKAGES\GLM.0.9.6.1\BUILD\NATIVE\INCLUDE\GLM\VEC4.HPP
A:\USERS\GOAT\MY DOCUMENTS\VISUAL STUDIO 2013\PROJECTS\DIAMOND SQUARE ALGORITHM\PACKAGES\GLM.0.9.6.1\BUILD\NATIVE\INCLUDE\GLM\DETAIL\TYPE_VEC4.HPP
A:\USERS\GOAT\MY DOCUMENTS\VISUAL STUDIO 2013\PROJECTS\DIAMOND SQUARE ALGORITHM\PACKAGES\GLM.0.9.6.1\BUILD\NATIVE\INCLUDE\GLM\DETAIL\TYPE_VEC4.INL
A:\USERS\GOAT\MY DOCUMENTS\VISUAL STUDIO 2013\PROJECTS\DIAMOND SQUARE ALGORITHM\PACKAGES\GLM.0.9.6.1\BUILD\NATIVE\INCLUDE\GLM\MAT2X2.HPP
A:\USERS\GOAT\MY DOCUMENTS\VISUAL STUDIO 2013\PROJECTS\DIAMOND SQUARE ALGORITHM\PACKAGES\GLM.0.9.6.1\BUILD\NATIVE\INCLUDE\GLM\DETAIL\TYPE_MAT2X2.HPP
A:\USERS\GOAT\MY DOCUMENTS\VISUAL STUDIO 2013\PROJECTS\DIAMOND SQUARE ALGORITHM\PACKAGES\GLM.0.9.6.1\BUILD\NATIVE\INCLUDE\GLM\DETAIL\TYPE_MAT2X2.INL
A:\USERS\GOAT\MY DOCUMENTS\VISUAL STUDIO 2013\PROJECTS\DIAMOND SQUARE ALGORITHM\PACKAGES\GLM.0.9.6.1\BUILD\NATIVE\INCLUDE\GLM\MAT2X3.HPP
A:\USERS\GOAT\MY DOCUMENTS\VISUAL STUDIO 2013\PROJECTS\DIAMOND SQUARE ALGORITHM\PACKAGES\GLM.0.9.6.1\BUILD\NATIVE\INCLUDE\GLM\DETAIL\TYPE_MAT2X3.HPP
A:\USERS\GOAT\MY DOCUMENTS\VISUAL STUDIO 2013\PROJECTS\DIAMOND SQUARE ALGORITHM\PACKAGES\GLM.0.9.6.1\BUILD\NATIVE\INCLUDE\GLM\DETAIL\TYPE_MAT2X3.INL
A:\USERS\GOAT\MY DOCUMENTS\VISUAL STUDIO 2013\PROJECTS\DIAMOND SQUARE ALGORITHM\PACKAGES\GLM.0.9.6.1\BUILD\NATIVE\INCLUDE\GLM\MAT2X4.HPP
A:\USERS\GOAT\MY DOCUMENTS\VISUAL STUDIO 2013\PROJECTS\DIAMOND SQUARE ALGORITHM\PACKAGES\GLM.0.9.6.1\BUILD\NATIVE\INCLUDE\GLM\DETAIL\TYPE_MAT2X4.HPP
A:\USERS\GOAT\MY DOCUMENTS\VISUAL STUDIO 2013\PROJECTS\DIAMOND SQUARE ALGORITHM\PACKAGES\GLM.0.9.6.1\BUILD\NATIVE\INCLUDE\GLM\DETAIL\TYPE_MAT2X4.INL
A:\USERS\GOAT\MY DOCUMENTS\VISUAL STUDIO 2013\PROJECTS\DIAMOND SQUARE ALGORITHM\PACKAGES\GLM.0.9.6.1\BUILD\NATIVE\INCLUDE\GLM\MAT3X2.HPP
A:\USERS\GOAT\MY DOCUMENTS\VISUAL STUDIO 2013\PROJECTS\DIAMOND SQUARE ALGORITHM\PACKAGES\GLM.0.9.6.1\BUILD\NATIVE\INCLUDE\GLM\DETAIL\TYPE_MAT3X2.HPP
A:\USERS\GOAT\MY DOCUMENTS\VISUAL STUDIO 2013\PROJECTS\DIAMOND SQUARE ALGORITHM\PACKAGES\GLM.0.9.6.1\BUILD\NATIVE\INCLUDE\GLM\DETAIL\TYPE_MAT3X2.INL
A:\USERS\GOAT\MY DOCUMENTS\VISUAL STUDIO 2013\PROJECTS\DIAMOND SQUARE ALGORITHM\PACKAGES\GLM.0.9.6.1\BUILD\NATIVE\INCLUDE\GLM\MAT3X3.HPP
A:\USERS\GOAT\MY DOCUMENTS\VISUAL STUDIO 2013\PROJECTS\DIAMOND SQUARE ALGORITHM\PACKAGES\GLM.0.9.6.1\BUILD\NATIVE\INCLUDE\GLM\DETAIL\TYPE_MAT3X3.HPP
A:\USERS\GOAT\MY DOCUMENTS\VISUAL STUDIO 2013\PROJECTS\DIAMOND SQUARE ALGORITHM\PACKAGES\GLM.0.9.6.1\BUILD\NATIVE\INCLUDE\GLM\DETAIL\TYPE_MAT3X3.INL
A:\USERS\GOAT\MY DOCUMENTS\VISUAL STUDIO 2013\PROJECTS\DIAMOND SQUARE ALGORITHM\PACKAGES\GLM.0.9.6.1\BUILD\NATIVE\INCLUDE\GLM\MAT3X4.HPP
A:\USERS\GOAT\MY DOCUMENTS\VISUAL STUDIO 2013\PROJECTS\DIAMOND SQUARE ALGORITHM\PACKAGES\GLM.0.9.6.1\BUILD\NATIVE\INCLUDE\GLM\DETAIL\TYPE_MAT3X4.HPP
A:\USERS\GOAT\MY DOCUMENTS\VISUAL STUDIO 2013\PROJECTS\DIAMOND SQUARE ALGORITHM\PACKAGES\GLM.0.9.6.1\BUILD\NATIVE\INCLUDE\GLM\DETAIL\TYPE_MAT3X4.INL
A:\USERS\GOAT\MY DOCUMENTS\VISUAL STUDIO 2013\PROJECTS\DIAMOND SQUARE ALGORITHM\PACKAGES\GLM.0.9.6.1\BUILD\NATIVE\INCLUDE\GLM\MAT4X2.HPP
A:\USERS\GOAT\MY DOCUMENTS\VISUAL STUDIO 2013\PROJECTS\DIAMOND SQUARE ALGORITHM\PACKAGES\GLM.0.9.6.1\BUILD\NATIVE\INCLUDE\GLM\DETAIL\TYPE_MAT4X2.HPP
A:\USERS\GOAT\MY DOCUMENTS\VISUAL STUDIO 2013\PROJECTS\DIAMOND SQUARE ALGORITHM\PACKAGES\GLM.0.9.6.1\BUILD\NATIVE\INCLUDE\GLM\DETAIL\TYPE_MAT4X2.INL
A:\USERS\GOAT\MY DOCUMENTS\VISUAL STUDIO 2013\PROJECTS\DIAMOND SQUARE ALGORITHM\PACKAGES\GLM.0.9.6.1\BUILD\NATIVE\INCLUDE\GLM\MAT4X3.HPP
A:\USERS\GOAT\MY DOCUMENTS\VISUAL STUDIO 2013\PROJECTS\DIAMOND SQUARE ALGORITHM\PACKAGES\GLM.0.9.6.1\BUILD\NATIVE\INCLUDE\GLM\DETAIL\TYPE_MAT4X3.HPP
A:\USERS\GOAT\MY DOCUMENTS\VISUAL STUDIO 2013\PROJECTS\DIAMOND SQUARE ALGORITHM\PACKAGES\GLM.0.9.6.1\BUILD\NATIVE\INCLUDE\GLM\DETAIL\TYPE_MAT4X3.INL
A:\USERS\GOAT\MY DOCUMENTS\VISUAL STUDIO 2013\PROJECTS\DIAMOND SQUARE ALGORITHM\PACKAGES\GLM.0.9.6.1\BUILD\NATIVE\INCLUDE\GLM\MAT4X4.HPP
A:\USERS\GOAT\MY DOCUMENTS\VISUAL STUDIO 2013\PROJECTS\DIAMOND SQUARE ALGORITHM\PACKAGES\GLM.0.9.6.1\BUILD\NATIVE\INCLUDE\GLM\DETAIL\TYPE_MAT4X4.HPP
A:\USERS\GOAT\MY DOCUMENTS\VISUAL STUDIO 2013\PROJECTS\DIAMOND SQUARE ALGORITHM\PACKAGES\GLM.0.9.6.1\BUILD\NATIVE\INCLUDE\GLM\DETAIL\TYPE_MAT4X4.INL
A:\USERS\GOAT\MY DOCUMENTS\VISUAL STUDIO 2013\PROJECTS\DIAMOND SQUARE ALGORITHM\PACKAGES\GLM.0.9.6.1\BUILD\NATIVE\INCLUDE\GLM\TRIGONOMETRIC.HPP
A:\USERS\GOAT\MY DOCUMENTS\VISUAL STUDIO 2013\PROJECTS\DIAMOND SQUARE ALGORITHM\PACKAGES\GLM.0.9.6.1\BUILD\NATIVE\INCLUDE\GLM\DETAIL\FUNC_TRIGONOMETRIC.HPP
A:\USERS\GOAT\MY DOCUMENTS\VISUAL STUDIO 2013\PROJECTS\DIAMOND SQUARE ALGORITHM\PACKAGES\GLM.0.9.6.1\BUILD\NATIVE\INCLUDE\GLM\DETAIL\FUNC_TRIGONOMETRIC.INL
A:\USERS\GOAT\MY DOCUMENTS\VISUAL STUDIO 2013\PROJECTS\DIAMOND SQUARE ALGORITHM\PACKAGES\GLM.0.9.6.1\BUILD\NATIVE\INCLUDE\GLM\DETAIL\_VECTORIZE.HPP
A:\USERS\GOAT\MY DOCUMENTS\VISUAL STUDIO 2013\PROJECTS\DIAMOND SQUARE ALGORITHM\PACKAGES\GLM.0.9.6.1\BUILD\NATIVE\INCLUDE\GLM\DETAIL\TYPE_VEC1.HPP
A:\USERS\GOAT\MY DOCUMENTS\VISUAL STUDIO 2013\PROJECTS\DIAMOND SQUARE ALGORITHM\PACKAGES\GLM.0.9.6.1\BUILD\NATIVE\INCLUDE\GLM\DETAIL\TYPE_VEC1.INL
A:\USERS\GOAT\MY DOCUMENTS\VISUAL STUDIO 2013\PROJECTS\DIAMOND SQUARE ALGORITHM\PACKAGES\GLM.0.9.6.1\BUILD\NATIVE\INCLUDE\GLM\EXPONENTIAL.HPP
A:\USERS\GOAT\MY DOCUMENTS\VISUAL STUDIO 2013\PROJECTS\DIAMOND SQUARE ALGORITHM\PACKAGES\GLM.0.9.6.1\BUILD\NATIVE\INCLUDE\GLM\DETAIL\FUNC_EXPONENTIAL.HPP
A:\USERS\GOAT\MY DOCUMENTS\VISUAL STUDIO 2013\PROJECTS\DIAMOND SQUARE ALGORITHM\PACKAGES\GLM.0.9.6.1\BUILD\NATIVE\INCLUDE\GLM\DETAIL\FUNC_EXPONENTIAL.INL
A:\USERS\GOAT\MY DOCUMENTS\VISUAL STUDIO 2013\PROJECTS\DIAMOND SQUARE ALGORITHM\PACKAGES\GLM.0.9.6.1\BUILD\NATIVE\INCLUDE\GLM\DETAIL\FUNC_VECTOR_RELATIONAL.HPP
A:\USERS\GOAT\MY DOCUMENTS\VISUAL STUDIO 2013\PROJECTS\DIAMOND SQUARE ALGORITHM\PACKAGES\GLM.0.9.6.1\BUILD\NATIVE\INCLUDE\GLM\DETAIL\FUNC_VECTOR_RELATIONAL.INL
A:\USERS\GOAT\MY DOCUMENTS\VISUAL STUDIO 2013\PROJECTS\DIAMOND SQUARE ALGORITHM\PACKAGES\GLM.0.9.6.1\BUILD\NATIVE\INCLUDE\GLM\COMMON.HPP
A:\USERS\GOAT\MY DOCUMENTS\VISUAL STUDIO 2013\PROJECTS\DIAMOND SQUARE ALGORITHM\PACKAGES\GLM.0.9.6.1\BUILD\NATIVE\INCLUDE\GLM\DETAIL\FUNC_COMMON.HPP
A:\USERS\GOAT\MY DOCUMENTS\VISUAL STUDIO 2013\PROJECTS\DIAMOND SQUARE ALGORITHM\PACKAGES\GLM.0.9.6.1\BUILD\NATIVE\INCLUDE\GLM\DETAIL\FUNC_COMMON.INL
A:\USERS\GOAT\MY DOCUMENTS\VISUAL STUDIO 2013\PROJECTS\DIAMOND SQUARE ALGORITHM\PACKAGES\GLM.0.9.6.1\BUILD\NATIVE\INCLUDE\GLM\PACKING.HPP
A:\USERS\GOAT\MY DOCUMENTS\VISUAL STUDIO 2013\PROJECTS\DIAMOND SQUARE ALGORITHM\PACKAGES\GLM.0.9.6.1\BUILD\NATIVE\INCLUDE\GLM\DETAIL\FUNC_PACKING.HPP
A:\USERS\GOAT\MY DOCUMENTS\VISUAL STUDIO 2013\PROJECTS\DIAMOND SQUARE ALGORITHM\PACKAGES\GLM.0.9.6.1\BUILD\NATIVE\INCLUDE\GLM\DETAIL\FUNC_PACKING.INL
A:\USERS\GOAT\MY DOCUMENTS\VISUAL STUDIO 2013\PROJECTS\DIAMOND SQUARE ALGORITHM\PACKAGES\GLM.0.9.6.1\BUILD\NATIVE\INCLUDE\GLM\DETAIL\TYPE_HALF.HPP
A:\USERS\GOAT\MY DOCUMENTS\VISUAL STUDIO 2013\PROJECTS\DIAMOND SQUARE ALGORITHM\PACKAGES\GLM.0.9.6.1\BUILD\NATIVE\INCLUDE\GLM\DETAIL\TYPE_HALF.INL
A:\USERS\GOAT\MY DOCUMENTS\VISUAL STUDIO 2013\PROJECTS\DIAMOND SQUARE ALGORITHM\PACKAGES\GLM.0.9.6.1\BUILD\NATIVE\INCLUDE\GLM\GEOMETRIC.HPP
A:\USERS\GOAT\MY DOCUMENTS\VISUAL STUDIO 2013\PROJECTS\DIAMOND SQUARE ALGORITHM\PACKAGES\GLM.0.9.6.1\BUILD\NATIVE\INCLUDE\GLM\DETAIL\FUNC_GEOMETRIC.HPP
A:\USERS\GOAT\MY DOCUMENTS\VISUAL STUDIO 2013\PROJECTS\DIAMOND SQUARE ALGORITHM\PACKAGES\GLM.0.9.6.1\BUILD\NATIVE\INCLUDE\GLM\DETAIL\FUNC_GEOMETRIC.INL
A:\USERS\GOAT\MY DOCUMENTS\VISUAL STUDIO 2013\PROJECTS\DIAMOND SQUARE ALGORITHM\PACKAGES\GLM.0.9.6.1\BUILD\NATIVE\INCLUDE\GLM\MATRIX.HPP
A:\USERS\GOAT\MY DOCUMENTS\VISUAL STUDIO 2013\PROJECTS\DIAMOND SQUARE ALGORITHM\PACKAGES\GLM.0.9.6.1\BUILD\NATIVE\INCLUDE\GLM\DETAIL\FUNC_MATRIX.HPP
A:\USERS\GOAT\MY DOCUMENTS\VISUAL STUDIO 2013\PROJECTS\DIAMOND SQUARE ALGORITHM\PACKAGES\GLM.0.9.6.1\BUILD\NATIVE\INCLUDE\GLM\DETAIL\FUNC_MATRIX.INL
A:\USERS\GOAT\MY DOCUMENTS\VISUAL STUDIO 2013\PROJECTS\DIAMOND SQUARE ALGORITHM\PACKAGES\GLM.0.9.6.1\BUILD\NATIVE\INCLUDE\GLM\VECTOR_RELATIONAL.HPP
A:\USERS\GOAT\MY DOCUMENTS\VISUAL STUDIO 2013\PROJECTS\DIAMOND SQUARE ALGORITHM\PACKAGES\GLM.0.9.6.1\BUILD\NATIVE\INCLUDE\GLM\INTEGER.HPP
A:\USERS\GOAT\MY DOCUMENTS\VISUAL STUDIO 2013\PROJECTS\DIAMOND SQUARE ALGORITHM\PACKAGES\GLM.0.9.6.1\BUILD\NATIVE\INCLUDE\GLM\DETAIL\FUNC_INTEGER.HPP
A:\USERS\GOAT\MY DOCUMENTS\VISUAL STUDIO 2013\PROJECTS\DIAMOND SQUARE ALGORITHM\PACKAGES\GLM.0.9.6.1\BUILD\NATIVE\INCLUDE\GLM\DETAIL\FUNC_INTEGER.INL
A:\USERS\GOAT\MY DOCUMENTS\VISUAL STUDIO 2013\PROJECTS\DIAMOND SQUARE ALGORITHM\DIAMOND SQUARE ALGORITHM\CORE\GAMEMODELS.H
A:\PROGRAM FILES (X86)\MICROSOFT VISUAL STUDIO 12.0\VC\INCLUDE\MAP
A:\PROGRAM FILES (X86)\MICROSOFT VISUAL STUDIO 12.0\VC\INCLUDE\XTREE
A:\PROGRAM FILES (X86)\MICROSOFT VISUAL STUDIO 12.0\VC\INCLUDE\TUPLE
C:\PROGRAM FILES\BULLGUARD LTD\BULLGUARD\BULLGUARD.EXE
C:\WINDOWS\SYSTEM32\SVCHOST.EXE
C:\WINDOWS\SYSTEM32\RUNDLL32.EXE
A:\USERS\GOAT\MY DOCUMENTS\VISUAL STUDIO 2013\PROJECTS\DIAMOND SQUARE ALGORITHM\DIAMOND SQUARE ALGORITHM\MARCHINGCUBES\MCTABLE.H
^A:\USERS\GOAT\MY DOCUMENTS\VISUAL STUDIO 2013\PROJECTS\DIAMOND SQUARE ALGORITHM\DIAMOND SQUARE ALGORITHM\CORE\SHADERLOADER.CPP
A:\PROGRAM FILES (X86)\MICROSOFT VISUAL STUDIO 12.0\VC\BIN\X86_AMD64\1033\CLUI.DLL
C:\WINDOWS\GLOBALIZATION\SORTING\SORTDEFAULT.NLS
C:\WINDOWS\SYSTEM32\RSAENH.DLL
A:\PROGRAM FILES (X86)\MICROSOFT VISUAL STUDIO 12.0\VC\BIN\MSPDBSRV.EXE
C:\WINDOWS\SYSTEM32\TZRES.DLL
A:\USERS\GOAT\MY DOCUMENTS\VISUAL STUDIO 2013\PROJECTS\DIAMOND SQUARE ALGORITHM\DIAMOND SQUARE ALGORITHM\CORE\SHADERLOADER.H
A:\USERS\GOAT\MY DOCUMENTS\VISUAL STUDIO 2013\PROJECTS\DIAMOND SQUARE ALGORITHM\DIAMOND SQUARE ALGORITHM\DEPENDENCIES\GLEW\GLEW.H
C:\PROGRAM FILES (X86)\WINDOWS KITS\8.1\INCLUDE\UM\GL\GLU.H
C:\PROGRAM FILES (X86)\WINDOWS KITS\8.1\INCLUDE\SHARED\WINAPIFAMILY.H
C:\PROGRAM FILES (X86)\WINDOWS KITS\8.1\INCLUDE\UM\GL\GL.H
A:\USERS\GOAT\MY DOCUMENTS\VISUAL STUDIO 2013\PROJECTS\DIAMOND SQUARE ALGORITHM\DIAMOND SQUARE ALGORITHM\DEPENDENCIES\FREEGLUT\FREEGLUT.H
A:\USERS\GOAT\MY DOCUMENTS\VISUAL STUDIO 2013\PROJECTS\DIAMOND SQUARE ALGORITHM\DIAMOND SQUARE ALGORITHM\DEPENDENCIES\FREEGLUT\FREEGLUT_STD.H
C:\PROGRAM FILES (X86)\WINDOWS KITS\8.1\INCLUDE\UM\WINDOWS.H
C:\PROGRAM FILES (X86)\WINDOWS KITS\8.1\INCLUDE\SHARED\SDKDDKVER.H
A:\PROGRAM FILES (X86)\MICROSOFT VISUAL STUDIO 12.0\VC\INCLUDE\EXCPT.H
A:\PROGRAM FILES (X86)\MICROSOFT VISUAL STUDIO 12.0\VC\INCLUDE\CRTDEFS.H
A:\PROGRAM FILES (X86)\MICROSOFT VISUAL STUDIO 12.0\VC\INCLUDE\SAL.H
A:\PROGRAM FILES (X86)\MICROSOFT VISUAL STUDIO 12.0\VC\INCLUDE\CONCURRENCYSAL.H
A:\PROGRAM FILES (X86)\MICROSOFT VISUAL STUDIO 12.0\VC\INCLUDE\VADEFS.H
A:\PROGRAM FILES (X86)\MICROSOFT VISUAL STUDIO 12.0\VC\INCLUDE\STDARG.H
C:\PROGRAM FILES (X86)\WINDOWS KITS\8.1\INCLUDE\SHARED\WINDEF.H
C:\PROGRAM FILES (X86)\WINDOWS KITS\8.1\INCLUDE\SHARED\MINWINDEF.H
C:\PROGRAM FILES (X86)\WINDOWS KITS\8.1\INCLUDE\SHARED\SPECSTRINGS.H
C:\PROGRAM FILES (X86)\WINDOWS KITS\8.1\INCLUDE\SHARED\SPECSTRINGS_STRICT.H
C:\PROGRAM FILES (X86)\WINDOWS KITS\8.1\INCLUDE\SHARED\SPECSTRINGS_UNDEF.H
C:\PROGRAM FILES (X86)\WINDOWS KITS\8.1\INCLUDE\SHARED\DRIVERSPECS.H
C:\PROGRAM FILES (X86)\WINDOWS KITS\8.1\INCLUDE\SHARED\SDV_DRIVERSPECS.H
C:\PROGRAM FILES (X86)\WINDOWS KITS\8.1\INCLUDE\UM\WINNT.H
A:\PROGRAM FILES (X86)\MICROSOFT VISUAL STUDIO 12.0\VC\INCLUDE\CTYPE.H
C:\PROGRAM FILES (X86)\WINDOWS KITS\8.1\INCLUDE\SHARED\KERNELSPECS.H
C:\PROGRAM FILES (X86)\WINDOWS KITS\8.1\INCLUDE\SHARED\BASETSD.H
C:\PROGRAM FILES (X86)\WINDOWS KITS\8.1\INCLUDE\SHARED\GUIDDEF.H
A:\PROGRAM FILES (X86)\MICROSOFT VISUAL STUDIO 12.0\VC\INCLUDE\STRING.H
C:\PROGRAM FILES (X86)\WINDOWS KITS\8.1\INCLUDE\SHARED\PSHPACK4.H
C:\PROGRAM FILES (X86)\WINDOWS KITS\8.1\INCLUDE\SHARED\POPPACK.H
C:\PROGRAM FILES (X86)\WINDOWS KITS\8.1\INCLUDE\SHARED\PSHPACK2.H
C:\PROGRAM FILES (X86)\WINDOWS KITS\8.1\INCLUDE\SHARED\PSHPACK8.H
C:\PROGRAM FILES (X86)\WINDOWS KITS\8.1\INCLUDE\SHARED\APISET.H
C:\PROGRAM FILES (X86)\WINDOWS KITS\8.1\INCLUDE\SHARED\KTMTYPES.H
C:\PROGRAM FILES (X86)\WINDOWS KITS\8.1\INCLUDE\UM\WINBASE.H
C:\PROGRAM FILES (X86)\WINDOWS KITS\8.1\INCLUDE\SHARED\APISETCCONV.H
C:\PROGRAM FILES (X86)\WINDOWS KITS\8.1\INCLUDE\UM\MINWINBASE.H
C:\PROGRAM FILES (X86)\WINDOWS KITS\8.1\INCLUDE\UM\PROCESSENV.H
C:\PROGRAM FILES (X86)\WINDOWS KITS\8.1\INCLUDE\UM\FILEAPI.H
C:\PROGRAM FILES (X86)\WINDOWS KITS\8.1\INCLUDE\UM\DEBUGAPI.H
C:\PROGRAM FILES (X86)\WINDOWS KITS\8.1\INCLUDE\UM\UTILAPISET.H
C:\PROGRAM FILES (X86)\WINDOWS KITS\8.1\INCLUDE\UM\HANDLEAPI.H
C:\PROGRAM FILES (X86)\WINDOWS KITS\8.1\INCLUDE\UM\ERRHANDLINGAPI.H
C:\PROGRAM FILES (X86)\WINDOWS KITS\8.1\INCLUDE\UM\FIBERSAPI.H
C:\PROGRAM FILES (X86)\WINDOWS KITS\8.1\INCLUDE\UM\NAMEDPIPEAPI.H
C:\PROGRAM FILES (X86)\WINDOWS KITS\8.1\INCLUDE\UM\PROFILEAPI.H
C:\PROGRAM FILES (X86)\WINDOWS KITS\8.1\INCLUDE\UM\HEAPAPI.H
C:\PROGRAM FILES (X86)\WINDOWS KITS\8.1\INCLUDE\UM\IOAPISET.H
C:\PROGRAM FILES (X86)\WINDOWS KITS\8.1\INCLUDE\UM\SYNCHAPI.H
C:\PROGRAM FILES (X86)\WINDOWS KITS\8.1\INCLUDE\UM\INTERLOCKEDAPI.H
C:\PROGRAM FILES (X86)\WINDOWS KITS\8.1\INCLUDE\UM\PROCESSTHREADSAPI.H
C:\PROGRAM FILES (X86)\WINDOWS KITS\8.1\INCLUDE\UM\SYSINFOAPI.H
C:\PROGRAM FILES (X86)\WINDOWS KITS\8.1\INCLUDE\UM\MEMORYAPI.H
C:\PROGRAM FILES (X86)\WINDOWS KITS\8.1\INCLUDE\UM\THREADPOOLLEGACYAPISET.H
C:\PROGRAM FILES (X86)\WINDOWS KITS\8.1\INCLUDE\UM\THREADPOOLAPISET.H
C:\PROGRAM FILES (X86)\WINDOWS KITS\8.1\INCLUDE\UM\BEMAPISET.H
C:\PROGRAM FILES (X86)\WINDOWS KITS\8.1\INCLUDE\UM\JOBAPI.H
C:\PROGRAM FILES (X86)\WINDOWS KITS\8.1\INCLUDE\UM\WOW64APISET.H
C:\PROGRAM FILES (X86)\WINDOWS KITS\8.1\INCLUDE\UM\LIBLOADERAPI.H
C:\PROGRAM FILES (X86)\WINDOWS KITS\8.1\INCLUDE\UM\SECURITYBASEAPI.H
C:\PROGRAM FILES (X86)\WINDOWS KITS\8.1\INCLUDE\UM\NAMESPACEAPI.H
C:\PROGRAM FILES (X86)\WINDOWS KITS\8.1\INCLUDE\UM\SYSTEMTOPOLOGYAPI.H
C:\PROGRAM FILES (X86)\WINDOWS KITS\8.1\INCLUDE\UM\PROCESSTOPOLOGYAPI.H
C:\PROGRAM FILES (X86)\WINDOWS KITS\8.1\INCLUDE\UM\SECURITYAPPCONTAINER.H
C:\PROGRAM FILES (X86)\WINDOWS KITS\8.1\INCLUDE\UM\REALTIMEAPISET.H
C:\PROGRAM FILES (X86)\WINDOWS KITS\8.1\INCLUDE\SHARED\WINERROR.H
C:\PROGRAM FILES (X86)\WINDOWS KITS\8.1\INCLUDE\UM\TIMEZONEAPI.H
C:\PROGRAM FILES (X86)\WINDOWS KITS\8.1\INCLUDE\UM\WINGDI.H
C:\PROGRAM FILES (X86)\WINDOWS KITS\8.1\INCLUDE\SHARED\PSHPACK1.H
C:\PROGRAM FILES (X86)\WINDOWS KITS\8.1\INCLUDE\UM\WINUSER.H
C:\PROGRAM FILES (X86)\WINDOWS KITS\8.1\INCLUDE\SHARED\TVOUT.H
C:\PROGRAM FILES (X86)\WINDOWS KITS\8.1\INCLUDE\UM\WINNLS.H
C:\PROGRAM FILES (X86)\WINDOWS KITS\8.1\INCLUDE\UM\DATETIMEAPI.H
C:\PROGRAM FILES (X86)\WINDOWS KITS\8.1\INCLUDE\UM\STRINGAPISET.H
C:\PROGRAM FILES (X86)\WINDOWS KITS\8.1\INCLUDE\UM\WINCON.H
C:\PROGRAM FILES (X86)\WINDOWS KITS\8.1\INCLUDE\UM\CONSOLEAPI.H
C:\PROGRAM FILES (X86)\WINDOWS KITS\8.1\INCLUDE\UM\WINVER.H
C:\PROGRAM FILES (X86)\WINDOWS KITS\8.1\INCLUDE\UM\VERRSRC.H
C:\PROGRAM FILES (X86)\WINDOWS KITS\8.1\INCLUDE\UM\WINREG.H
C:\PROGRAM FILES (X86)\WINDOWS KITS\8.1\INCLUDE\UM\REASON.H
C:\PROGRAM FILES (X86)\WINDOWS KITS\8.1\INCLUDE\UM\WINNETWK.H
C:\PROGRAM FILES (X86)\WINDOWS KITS\8.1\INCLUDE\SHARED\WNNC.H
C:\PROGRAM FILES (X86)\WINDOWS KITS\8.1\INCLUDE\SHARED\STRALIGN.H
C:\PROGRAM FILES (X86)\WINDOWS KITS\8.1\INCLUDE\UM\WINSVC.H
C:\PROGRAM FILES (X86)\WINDOWS KITS\8.1\INCLUDE\UM\MCX.H
C:\PROGRAM FILES (X86)\WINDOWS KITS\8.1\INCLUDE\UM\IMM.H
C:\PROGRAM FILES (X86)\WINDOWS KITS\8.1\INCLUDE\UM\IME_CMODES.H
A:\PROGRAM FILES (X86)\MICROSOFT VISUAL STUDIO 12.0\VC\INCLUDE\STDLIB.H
A:\PROGRAM FILES (X86)\MICROSOFT VISUAL STUDIO 12.0\VC\INCLUDE\LIMITS.H
A:\USERS\GOAT\MY DOCUMENTS\VISUAL STUDIO 2013\PROJECTS\DIAMOND SQUARE ALGORITHM\DIAMOND SQUARE ALGORITHM\DEPENDENCIES\FREEGLUT\FREEGLUT_EXT.H
A:\PROGRAM FILES (X86)\MICROSOFT VISUAL STUDIO 12.0\VC\INCLUDE\IOSTREAM
A:\PROGRAM FILES (X86)\MICROSOFT VISUAL STUDIO 12.0\VC\INCLUDE\ISTREAM
A:\PROGRAM FILES (X86)\MICROSOFT VISUAL STUDIO 12.0\VC\INCLUDE\OSTREAM
A:\PROGRAM FILES (X86)\MICROSOFT VISUAL STUDIO 12.0\VC\INCLUDE\IOS
A:\PROGRAM FILES (X86)\MICROSOFT VISUAL STUDIO 12.0\VC\INCLUDE\XLOCNUM
A:\PROGRAM FILES (X86)\MICROSOFT VISUAL STUDIO 12.0\VC\INCLUDE\CLIMITS
A:\PROGRAM FILES (X86)\MICROSOFT VISUAL STUDIO 12.0\VC\INCLUDE\YVALS.H
A:\PROGRAM FILES (X86)\MICROSOFT VISUAL STUDIO 12.0\VC\INCLUDE\XKEYCHECK.H
A:\PROGRAM FILES (X86)\MICROSOFT VISUAL STUDIO 12.0\VC\INCLUDE\USE_ANSI.H
A:\PROGRAM FILES (X86)\MICROSOFT VISUAL STUDIO 12.0\VC\INCLUDE\CMATH
A:\PROGRAM FILES (X86)\MICROSOFT VISUAL STUDIO 12.0\VC\INCLUDE\MATH.H
A:\PROGRAM FILES (X86)\MICROSOFT VISUAL STUDIO 12.0\VC\INCLUDE\XTGMATH.H
A:\PROGRAM FILES (X86)\MICROSOFT VISUAL STUDIO 12.0\VC\INCLUDE\XTR1COMMON
A:\PROGRAM FILES (X86)\MICROSOFT VISUAL STUDIO 12.0\VC\INCLUDE\CSTDIO
A:\PROGRAM FILES (X86)\MICROSOFT VISUAL STUDIO 12.0\VC\INCLUDE\STDIO.H
A:\PROGRAM FILES (X86)\MICROSOFT VISUAL STUDIO 12.0\VC\INCLUDE\SWPRINTF.INL
A:\PROGRAM FILES (X86)\MICROSOFT VISUAL STUDIO 12.0\VC\INCLUDE\CSTDLIB
A:\PROGRAM FILES (X86)\MICROSOFT VISUAL STUDIO 12.0\VC\INCLUDE\STREAMBUF
A:\PROGRAM FILES (X86)\MICROSOFT VISUAL STUDIO 12.0\VC\INCLUDE\XIOSBASE
A:\PROGRAM FILES (X86)\MICROSOFT VISUAL STUDIO 12.0\VC\INCLUDE\XLOCALE
A:\PROGRAM FILES (X86)\MICROSOFT VISUAL STUDIO 12.0\VC\INCLUDE\CSTRING
A:\PROGRAM FILES (X86)\MICROSOFT VISUAL STUDIO 12.0\VC\INCLUDE\STDEXCEPT
A:\PROGRAM FILES (X86)\MICROSOFT VISUAL STUDIO 12.0\VC\INCLUDE\EXCEPTION
A:\PROGRAM FILES (X86)\MICROSOFT VISUAL STUDIO 12.0\VC\INCLUDE\XSTDDEF
A:\PROGRAM FILES (X86)\MICROSOFT VISUAL STUDIO 12.0\VC\INCLUDE\CSTDDEF
A:\PROGRAM FILES (X86)\MICROSOFT VISUAL STUDIO 12.0\VC\INCLUDE\STDDEF.H
A:\PROGRAM FILES (X86)\MICROSOFT VISUAL STUDIO 12.0\VC\INCLUDE\INITIALIZER_LIST
A:\PROGRAM FILES (X86)\MICROSOFT VISUAL STUDIO 12.0\VC\INCLUDE\EH.H
A:\PROGRAM FILES (X86)\MICROSOFT VISUAL STUDIO 12.0\VC\INCLUDE\MALLOC.H
A:\PROGRAM FILES (X86)\MICROSOFT VISUAL STUDIO 12.0\VC\INCLUDE\XSTRING
A:\PROGRAM FILES (X86)\MICROSOFT VISUAL STUDIO 12.0\VC\INCLUDE\XMEMORY0
A:\PROGRAM FILES (X86)\MICROSOFT VISUAL STUDIO 12.0\VC\INCLUDE\LIMITS
A:\PROGRAM FILES (X86)\MICROSOFT VISUAL STUDIO 12.0\VC\INCLUDE\YMATH.H
A:\PROGRAM FILES (X86)\MICROSOFT VISUAL STUDIO 12.0\VC\INCLUDE\CFLOAT
A:\PROGRAM FILES (X86)\MICROSOFT VISUAL STUDIO 12.0\VC\INCLUDE\FLOAT.H
A:\PROGRAM FILES (X86)\MICROSOFT VISUAL STUDIO 12.0\VC\INCLUDE\CRTWRN.H
A:\PROGRAM FILES (X86)\MICROSOFT VISUAL STUDIO 12.0\VC\INCLUDE\CWCHAR
A:\PROGRAM FILES (X86)\MICROSOFT VISUAL STUDIO 12.0\VC\INCLUDE\WCHAR.H
A:\PROGRAM FILES (X86)\MICROSOFT VISUAL STUDIO 12.0\VC\INCLUDE\WTIME.INL
A:\PROGRAM FILES (X86)\MICROSOFT VISUAL STUDIO 12.0\VC\INCLUDE\NEW
A:\PROGRAM FILES (X86)\MICROSOFT VISUAL STUDIO 12.0\VC\INCLUDE\XUTILITY
A:\PROGRAM FILES (X86)\MICROSOFT VISUAL STUDIO 12.0\VC\INCLUDE\UTILITY
A:\PROGRAM FILES (X86)\MICROSOFT VISUAL STUDIO 12.0\VC\INCLUDE\IOSFWD
A:\PROGRAM FILES (X86)\MICROSOFT VISUAL STUDIO 12.0\VC\INCLUDE\CRTDBG.H
A:\PROGRAM FILES (X86)\MICROSOFT VISUAL STUDIO 12.0\VC\INCLUDE\TYPE_TRAITS
A:\PROGRAM FILES (X86)\MICROSOFT VISUAL STUDIO 12.0\VC\INCLUDE\XREFWRAP
A:\PROGRAM FILES (X86)\MICROSOFT VISUAL STUDIO 12.0\VC\INCLUDE\XATOMIC0.H
A:\PROGRAM FILES (X86)\MICROSOFT VISUAL STUDIO 12.0\VC\INCLUDE\INTRIN.H
A:\PROGRAM FILES (X86)\MICROSOFT VISUAL STUDIO 12.0\VC\INCLUDE\SETJMP.H
A:\PROGRAM FILES (X86)\MICROSOFT VISUAL STUDIO 12.0\VC\INCLUDE\IMMINTRIN.H
A:\PROGRAM FILES (X86)\MICROSOFT VISUAL STUDIO 12.0\VC\INCLUDE\WMMINTRIN.H
A:\PROGRAM FILES (X86)\MICROSOFT VISUAL STUDIO 12.0\VC\INCLUDE\NMMINTRIN.H
A:\PROGRAM FILES (X86)\MICROSOFT VISUAL STUDIO 12.0\VC\INCLUDE\SMMINTRIN.H
A:\PROGRAM FILES (X86)\MICROSOFT VISUAL STUDIO 12.0\VC\INCLUDE\TMMINTRIN.H
A:\PROGRAM FILES (X86)\MICROSOFT VISUAL STUDIO 12.0\VC\INCLUDE\PMMINTRIN.H
A:\PROGRAM FILES (X86)\MICROSOFT VISUAL STUDIO 12.0\VC\INCLUDE\EMMINTRIN.H
A:\PROGRAM FILES (X86)\MICROSOFT VISUAL STUDIO 12.0\VC\INCLUDE\XMMINTRIN.H
A:\PROGRAM FILES (X86)\MICROSOFT VISUAL STUDIO 12.0\VC\INCLUDE\MMINTRIN.H
A:\PROGRAM FILES (X86)\MICROSOFT VISUAL STUDIO 12.0\VC\INCLUDE\AMMINTRIN.H
A:\PROGRAM FILES (X86)\MICROSOFT VISUAL STUDIO 12.0\VC\INCLUDE\TYPEINFO
A:\PROGRAM FILES (X86)\MICROSOFT VISUAL STUDIO 12.0\VC\INCLUDE\XLOCINFO
A:\PROGRAM FILES (X86)\MICROSOFT VISUAL STUDIO 12.0\VC\INCLUDE\XLOCINFO.H
A:\PROGRAM FILES (X86)\MICROSOFT VISUAL STUDIO 12.0\VC\INCLUDE\LOCALE.H
A:\PROGRAM FILES (X86)\MICROSOFT VISUAL STUDIO 12.0\VC\INCLUDE\XDEBUG
A:\PROGRAM FILES (X86)\MICROSOFT VISUAL STUDIO 12.0\VC\INCLUDE\XMEMORY
A:\PROGRAM FILES (X86)\MICROSOFT VISUAL STUDIO 12.0\VC\INCLUDE\XFACET
A:\PROGRAM FILES (X86)\MICROSOFT VISUAL STUDIO 12.0\VC\INCLUDE\SYSTEM_ERROR
A:\PROGRAM FILES (X86)\MICROSOFT VISUAL STUDIO 12.0\VC\INCLUDE\CERRNO
A:\PROGRAM FILES (X86)\MICROSOFT VISUAL STUDIO 12.0\VC\INCLUDE\ERRNO.H
A:\PROGRAM FILES (X86)\MICROSOFT VISUAL STUDIO 12.0\VC\INCLUDE\SHARE.H
A:\PROGRAM FILES (X86)\MICROSOFT VISUAL STUDIO 12.0\VC\INCLUDE\FSTREAM
A:\PROGRAM FILES (X86)\MICROSOFT VISUAL STUDIO 12.0\VC\INCLUDE\VECTOR
^A:\USERS\GOAT\MY DOCUMENTS\VISUAL STUDIO 2013\PROJECTS\DIAMOND SQUARE ALGORITHM\DIAMOND SQUARE ALGORITHM\CORE\GAMEMODELS.CPP
A:\USERS\GOAT\MY DOCUMENTS\VISUAL STUDIO 2013\PROJECTS\DIAMOND SQUARE ALGORITHM\DIAMOND SQUARE ALGORITHM\CORE\GAMEMODELS.H
A:\USERS\GOAT\MY DOCUMENTS\VISUAL STUDIO 2013\PROJECTS\DIAMOND SQUARE ALGORITHM\DIAMOND SQUARE ALGORITHM\DEPENDENCIES\GLEW\GLEW.H
C:\PROGRAM FILES (X86)\WINDOWS KITS\8.1\INCLUDE\UM\GL\GLU.H
C:\PROGRAM FILES (X86)\WINDOWS KITS\8.1\INCLUDE\SHARED\WINAPIFAMILY.H
C:\PROGRAM FILES (X86)\WINDOWS KITS\8.1\INCLUDE\UM\GL\GL.H
A:\USERS\GOAT\MY DOCUMENTS\VISUAL STUDIO 2013\PROJECTS\DIAMOND SQUARE ALGORITHM\DIAMOND SQUARE ALGORITHM\CORE\VERTEXHEADER.H
A:\USERS\GOAT\MY DOCUMENTS\VISUAL STUDIO 2013\PROJECTS\DIAMOND SQUARE ALGORITHM\PACKAGES\GLM.0.9.6.1\BUILD\NATIVE\INCLUDE\GLM\GLM.HPP
A:\USERS\GOAT\MY DOCUMENTS\VISUAL STUDIO 2013\PROJECTS\DIAMOND SQUARE ALGORITHM\PACKAGES\GLM.0.9.6.1\BUILD\NATIVE\INCLUDE\GLM\DETAIL\_FIXES.HPP
A:\PROGRAM FILES (X86)\MICROSOFT VISUAL STUDIO 12.0\VC\INCLUDE\CMATH
A:\PROGRAM FILES (X86)\MICROSOFT VISUAL STUDIO 12.0\VC\INCLUDE\YVALS.H
A:\PROGRAM FILES (X86)\MICROSOFT VISUAL STUDIO 12.0\VC\INCLUDE\XKEYCHECK.H
A:\PROGRAM FILES (X86)\MICROSOFT VISUAL STUDIO 12.0\VC\INCLUDE\CRTDEFS.H
A:\PROGRAM FILES (X86)\MICROSOFT VISUAL STUDIO 12.0\VC\INCLUDE\SAL.H
A:\PROGRAM FILES (X86)\MICROSOFT VISUAL STUDIO 12.0\VC\INCLUDE\CONCURRENCYSAL.H
A:\PROGRAM FILES (X86)\MICROSOFT VISUAL STUDIO 12.0\VC\INCLUDE\VADEFS.H
A:\PROGRAM FILES (X86)\MICROSOFT VISUAL STUDIO 12.0\VC\INCLUDE\USE_ANSI.H
A:\PROGRAM FILES (X86)\MICROSOFT VISUAL STUDIO 12.0\VC\INCLUDE\MATH.H
A:\PROGRAM FILES (X86)\MICROSOFT VISUAL STUDIO 12.0\VC\INCLUDE\XTGMATH.H
A:\PROGRAM FILES (X86)\MICROSOFT VISUAL STUDIO 12.0\VC\INCLUDE\XTR1COMMON
A:\PROGRAM FILES (X86)\MICROSOFT VISUAL STUDIO 12.0\VC\INCLUDE\CLIMITS
A:\PROGRAM FILES (X86)\MICROSOFT VISUAL STUDIO 12.0\VC\INCLUDE\LIMITS.H
A:\PROGRAM FILES (X86)\MICROSOFT VISUAL STUDIO 12.0\VC\INCLUDE\CFLOAT
A:\PROGRAM FILES (X86)\MICROSOFT VISUAL STUDIO 12.0\VC\INCLUDE\FLOAT.H
A:\PROGRAM FILES (X86)\MICROSOFT VISUAL STUDIO 12.0\VC\INCLUDE\CRTWRN.H
A:\PROGRAM FILES (X86)\MICROSOFT VISUAL STUDIO 12.0\VC\INCLUDE\LIMITS
A:\PROGRAM FILES (X86)\MICROSOFT VISUAL STUDIO 12.0\VC\INCLUDE\YMATH.H
A:\PROGRAM FILES (X86)\MICROSOFT VISUAL STUDIO 12.0\VC\INCLUDE\CWCHAR
A:\PROGRAM FILES (X86)\MICROSOFT VISUAL STUDIO 12.0\VC\INCLUDE\WCHAR.H
A:\PROGRAM FILES (X86)\MICROSOFT VISUAL STUDIO 12.0\VC\INCLUDE\SWPRINTF.INL
A:\PROGRAM FILES (X86)\MICROSOFT VISUAL STUDIO 12.0\VC\INCLUDE\WTIME.INL
A:\PROGRAM FILES (X86)\MICROSOFT VISUAL STUDIO 12.0\VC\INCLUDE\XSTDDEF
A:\PROGRAM FILES (X86)\MICROSOFT VISUAL STUDIO 12.0\VC\INCLUDE\STDLIB.H
A:\PROGRAM FILES (X86)\MICROSOFT VISUAL STUDIO 12.0\VC\INCLUDE\CSTDDEF
A:\PROGRAM FILES (X86)\MICROSOFT VISUAL STUDIO 12.0\VC\INCLUDE\STDDEF.H
A:\PROGRAM FILES (X86)\MICROSOFT VISUAL STUDIO 12.0\VC\INCLUDE\INITIALIZER_LIST
A:\PROGRAM FILES (X86)\MICROSOFT VISUAL STUDIO 12.0\VC\INCLUDE\CASSERT
A:\PROGRAM FILES (X86)\MICROSOFT VISUAL STUDIO 12.0\VC\INCLUDE\ASSERT.H
A:\USERS\GOAT\MY DOCUMENTS\VISUAL STUDIO 2013\PROJECTS\DIAMOND SQUARE ALGORITHM\PACKAGES\GLM.0.9.6.1\BUILD\NATIVE\INCLUDE\GLM\FWD.HPP
A:\USERS\GOAT\MY DOCUMENTS\VISUAL STUDIO 2013\PROJECTS\DIAMOND SQUARE ALGORITHM\PACKAGES\GLM.0.9.6.1\BUILD\NATIVE\INCLUDE\GLM\DETAIL\TYPE_INT.HPP
A:\USERS\GOAT\MY DOCUMENTS\VISUAL STUDIO 2013\PROJECTS\DIAMOND SQUARE ALGORITHM\PACKAGES\GLM.0.9.6.1\BUILD\NATIVE\INCLUDE\GLM\DETAIL\SETUP.HPP
A:\PROGRAM FILES (X86)\MICROSOFT VISUAL STUDIO 12.0\VC\INCLUDE\TYPE_TRAITS
A:\PROGRAM FILES (X86)\MICROSOFT VISUAL STUDIO 12.0\VC\INCLUDE\XREFWRAP
A:\PROGRAM FILES (X86)\MICROSOFT VISUAL STUDIO 12.0\VC\INCLUDE\CSTDINT
A:\PROGRAM FILES (X86)\MICROSOFT VISUAL STUDIO 12.0\VC\INCLUDE\STDINT.H
A:\USERS\GOAT\MY DOCUMENTS\VISUAL STUDIO 2013\PROJECTS\DIAMOND SQUARE ALGORITHM\PACKAGES\GLM.0.9.6.1\BUILD\NATIVE\INCLUDE\GLM\DETAIL\TYPE_FLOAT.HPP
A:\USERS\GOAT\MY DOCUMENTS\VISUAL STUDIO 2013\PROJECTS\DIAMOND SQUARE ALGORITHM\PACKAGES\GLM.0.9.6.1\BUILD\NATIVE\INCLUDE\GLM\DETAIL\TYPE_VEC.HPP
A:\USERS\GOAT\MY DOCUMENTS\VISUAL STUDIO 2013\PROJECTS\DIAMOND SQUARE ALGORITHM\PACKAGES\GLM.0.9.6.1\BUILD\NATIVE\INCLUDE\GLM\DETAIL\PRECISION.HPP
A:\USERS\GOAT\MY DOCUMENTS\VISUAL STUDIO 2013\PROJECTS\DIAMOND SQUARE ALGORITHM\PACKAGES\GLM.0.9.6.1\BUILD\NATIVE\INCLUDE\GLM\DETAIL\TYPE_MAT.HPP
A:\USERS\GOAT\MY DOCUMENTS\VISUAL STUDIO 2013\PROJECTS\DIAMOND SQUARE ALGORITHM\PACKAGES\GLM.0.9.6.1\BUILD\NATIVE\INCLUDE\GLM\VEC2.HPP
A:\USERS\GOAT\MY DOCUMENTS\VISUAL STUDIO 2013\PROJECTS\DIAMOND SQUARE ALGORITHM\PACKAGES\GLM.0.9.6.1\BUILD\NATIVE\INCLUDE\GLM\DETAIL\TYPE_VEC2.HPP
A:\USERS\GOAT\MY DOCUMENTS\VISUAL STUDIO 2013\PROJECTS\DIAMOND SQUARE ALGORITHM\PACKAGES\GLM.0.9.6.1\BUILD\NATIVE\INCLUDE\GLM\DETAIL\TYPE_VEC2.INL
A:\USERS\GOAT\MY DOCUMENTS\VISUAL STUDIO 2013\PROJECTS\DIAMOND SQUARE ALGORITHM\PACKAGES\GLM.0.9.6.1\BUILD\NATIVE\INCLUDE\GLM\VEC3.HPP
A:\USERS\GOAT\MY DOCUMENTS\VISUAL STUDIO 2013\PROJECTS\DIAMOND SQUARE ALGORITHM\PACKAGES\GLM.0.9.6.1\BUILD\NATIVE\INCLUDE\GLM\DETAIL\TYPE_VEC3.HPP
A:\USERS\GOAT\MY DOCUMENTS\VISUAL STUDIO 2013\PROJECTS\DIAMOND SQUARE ALGORITHM\PACKAGES\GLM.0.9.6.1\BUILD\NATIVE\INCLUDE\GLM\DETAIL\TYPE_VEC3.INL
A:\USERS\GOAT\MY DOCUMENTS\VISUAL STUDIO 2013\PROJECTS\DIAMOND SQUARE ALGORITHM\PACKAGES\GLM.0.9.6.1\BUILD\NATIVE\INCLUDE\GLM\VEC4.HPP
A:\USERS\GOAT\MY DOCUMENTS\VISUAL STUDIO 2013\PROJECTS\DIAMOND SQUARE ALGORITHM\PACKAGES\GLM.0.9.6.1\BUILD\NATIVE\INCLUDE\GLM\DETAIL\TYPE_VEC4.HPP
A:\USERS\GOAT\MY DOCUMENTS\VISUAL STUDIO 2013\PROJECTS\DIAMOND SQUARE ALGORITHM\PACKAGES\GLM.0.9.6.1\BUILD\NATIVE\INCLUDE\GLM\DETAIL\TYPE_VEC4.INL
A:\USERS\GOAT\MY DOCUMENTS\VISUAL STUDIO 2013\PROJECTS\DIAMOND SQUARE ALGORITHM\PACKAGES\GLM.0.9.6.1\BUILD\NATIVE\INCLUDE\GLM\MAT2X2.HPP
A:\USERS\GOAT\MY DOCUMENTS\VISUAL STUDIO 2013\PROJECTS\DIAMOND SQUARE ALGORITHM\PACKAGES\GLM.0.9.6.1\BUILD\NATIVE\INCLUDE\GLM\DETAIL\TYPE_MAT2X2.HPP
A:\USERS\GOAT\MY DOCUMENTS\VISUAL STUDIO 2013\PROJECTS\DIAMOND SQUARE ALGORITHM\PACKAGES\GLM.0.9.6.1\BUILD\NATIVE\INCLUDE\GLM\DETAIL\TYPE_MAT2X2.INL
A:\USERS\GOAT\MY DOCUMENTS\VISUAL STUDIO 2013\PROJECTS\DIAMOND SQUARE ALGORITHM\PACKAGES\GLM.0.9.6.1\BUILD\NATIVE\INCLUDE\GLM\MAT2X3.HPP
A:\USERS\GOAT\MY DOCUMENTS\VISUAL STUDIO 2013\PROJECTS\DIAMOND SQUARE ALGORITHM\PACKAGES\GLM.0.9.6.1\BUILD\NATIVE\INCLUDE\GLM\DETAIL\TYPE_MAT2X3.HPP
A:\USERS\GOAT\MY DOCUMENTS\VISUAL STUDIO 2013\PROJECTS\DIAMOND SQUARE ALGORITHM\PACKAGES\GLM.0.9.6.1\BUILD\NATIVE\INCLUDE\GLM\DETAIL\TYPE_MAT2X3.INL
A:\USERS\GOAT\MY DOCUMENTS\VISUAL STUDIO 2013\PROJECTS\DIAMOND SQUARE ALGORITHM\PACKAGES\GLM.0.9.6.1\BUILD\NATIVE\INCLUDE\GLM\MAT2X4.HPP
A:\USERS\GOAT\MY DOCUMENTS\VISUAL STUDIO 2013\PROJECTS\DIAMOND SQUARE ALGORITHM\PACKAGES\GLM.0.9.6.1\BUILD\NATIVE\INCLUDE\GLM\DETAIL\TYPE_MAT2X4.HPP
A:\USERS\GOAT\MY DOCUMENTS\VISUAL STUDIO 2013\PROJECTS\DIAMOND SQUARE ALGORITHM\PACKAGES\GLM.0.9.6.1\BUILD\NATIVE\INCLUDE\GLM\DETAIL\TYPE_MAT2X4.INL
A:\USERS\GOAT\MY DOCUMENTS\VISUAL STUDIO 2013\PROJECTS\DIAMOND SQUARE ALGORITHM\PACKAGES\GLM.0.9.6.1\BUILD\NATIVE\INCLUDE\GLM\MAT3X2.HPP
A:\USERS\GOAT\MY DOCUMENTS\VISUAL STUDIO 2013\PROJECTS\DIAMOND SQUARE ALGORITHM\PACKAGES\GLM.0.9.6.1\BUILD\NATIVE\INCLUDE\GLM\DETAIL\TYPE_MAT3X2.HPP
A:\USERS\GOAT\MY DOCUMENTS\VISUAL STUDIO 2013\PROJECTS\DIAMOND SQUARE ALGORITHM\PACKAGES\GLM.0.9.6.1\BUILD\NATIVE\INCLUDE\GLM\DETAIL\TYPE_MAT3X2.INL
A:\USERS\GOAT\MY DOCUMENTS\VISUAL STUDIO 2013\PROJECTS\DIAMOND SQUARE ALGORITHM\PACKAGES\GLM.0.9.6.1\BUILD\NATIVE\INCLUDE\GLM\MAT3X3.HPP
A:\USERS\GOAT\MY DOCUMENTS\VISUAL STUDIO 2013\PROJECTS\DIAMOND SQUARE ALGORITHM\PACKAGES\GLM.0.9.6.1\BUILD\NATIVE\INCLUDE\GLM\DETAIL\TYPE_MAT3X3.HPP
A:\USERS\GOAT\MY DOCUMENTS\VISUAL STUDIO 2013\PROJECTS\DIAMOND SQUARE ALGORITHM\PACKAGES\GLM.0.9.6.1\BUILD\NATIVE\INCLUDE\GLM\DETAIL\TYPE_MAT3X3.INL
A:\USERS\GOAT\MY DOCUMENTS\VISUAL STUDIO 2013\PROJECTS\DIAMOND SQUARE ALGORITHM\PACKAGES\GLM.0.9.6.1\BUILD\NATIVE\INCLUDE\GLM\MAT3X4.HPP
A:\USERS\GOAT\MY DOCUMENTS\VISUAL STUDIO 2013\PROJECTS\DIAMOND SQUARE ALGORITHM\PACKAGES\GLM.0.9.6.1\BUILD\NATIVE\INCLUDE\GLM\DETAIL\TYPE_MAT3X4.HPP
A:\USERS\GOAT\MY DOCUMENTS\VISUAL STUDIO 2013\PROJECTS\DIAMOND SQUARE ALGORITHM\PACKAGES\GLM.0.9.6.1\BUILD\NATIVE\INCLUDE\GLM\DETAIL\TYPE_MAT3X4.INL
A:\USERS\GOAT\MY DOCUMENTS\VISUAL STUDIO 2013\PROJECTS\DIAMOND SQUARE ALGORITHM\PACKAGES\GLM.0.9.6.1\BUILD\NATIVE\INCLUDE\GLM\MAT4X2.HPP
A:\USERS\GOAT\MY DOCUMENTS\VISUAL STUDIO 2013\PROJECTS\DIAMOND SQUARE ALGORITHM\PACKAGES\GLM.0.9.6.1\BUILD\NATIVE\INCLUDE\GLM\DETAIL\TYPE_MAT4X2.HPP
A:\USERS\GOAT\MY DOCUMENTS\VISUAL STUDIO 2013\PROJECTS\DIAMOND SQUARE ALGORITHM\PACKAGES\GLM.0.9.6.1\BUILD\NATIVE\INCLUDE\GLM\DETAIL\TYPE_MAT4X2.INL
A:\USERS\GOAT\MY DOCUMENTS\VISUAL STUDIO 2013\PROJECTS\DIAMOND SQUARE ALGORITHM\PACKAGES\GLM.0.9.6.1\BUILD\NATIVE\INCLUDE\GLM\MAT4X3.HPP
A:\USERS\GOAT\MY DOCUMENTS\VISUAL STUDIO 2013\PROJECTS\DIAMOND SQUARE ALGORITHM\PACKAGES\GLM.0.9.6.1\BUILD\NATIVE\INCLUDE\GLM\DETAIL\TYPE_MAT4X3.HPP
A:\USERS\GOAT\MY DOCUMENTS\VISUAL STUDIO 2013\PROJECTS\DIAMOND SQUARE ALGORITHM\PACKAGES\GLM.0.9.6.1\BUILD\NATIVE\INCLUDE\GLM\DETAIL\TYPE_MAT4X3.INL
A:\USERS\GOAT\MY DOCUMENTS\VISUAL STUDIO 2013\PROJECTS\DIAMOND SQUARE ALGORITHM\PACKAGES\GLM.0.9.6.1\BUILD\NATIVE\INCLUDE\GLM\MAT4X4.HPP
A:\USERS\GOAT\MY DOCUMENTS\VISUAL STUDIO 2013\PROJECTS\DIAMOND SQUARE ALGORITHM\PACKAGES\GLM.0.9.6.1\BUILD\NATIVE\INCLUDE\GLM\DETAIL\TYPE_MAT4X4.HPP
A:\USERS\GOAT\MY DOCUMENTS\VISUAL STUDIO 2013\PROJECTS\DIAMOND SQUARE ALGORITHM\PACKAGES\GLM.0.9.6.1\BUILD\NATIVE\INCLUDE\GLM\DETAIL\TYPE_MAT4X4.INL
A:\USERS\GOAT\MY DOCUMENTS\VISUAL STUDIO 2013\PROJECTS\DIAMOND SQUARE ALGORITHM\PACKAGES\GLM.0.9.6.1\BUILD\NATIVE\INCLUDE\GLM\TRIGONOMETRIC.HPP
A:\USERS\GOAT\MY DOCUMENTS\VISUAL STUDIO 2013\PROJECTS\DIAMOND SQUARE ALGORITHM\PACKAGES\GLM.0.9.6.1\BUILD\NATIVE\INCLUDE\GLM\DETAIL\FUNC_TRIGONOMETRIC.HPP
A:\USERS\GOAT\MY DOCUMENTS\VISUAL STUDIO 2013\PROJECTS\DIAMOND SQUARE ALGORITHM\PACKAGES\GLM.0.9.6.1\BUILD\NATIVE\INCLUDE\GLM\DETAIL\FUNC_TRIGONOMETRIC.INL
A:\USERS\GOAT\MY DOCUMENTS\VISUAL STUDIO 2013\PROJECTS\DIAMOND SQUARE ALGORITHM\PACKAGES\GLM.0.9.6.1\BUILD\NATIVE\INCLUDE\GLM\DETAIL\_VECTORIZE.HPP
A:\USERS\GOAT\MY DOCUMENTS\VISUAL STUDIO 2013\PROJECTS\DIAMOND SQUARE ALGORITHM\PACKAGES\GLM.0.9.6.1\BUILD\NATIVE\INCLUDE\GLM\DETAIL\TYPE_VEC1.HPP
A:\USERS\GOAT\MY DOCUMENTS\VISUAL STUDIO 2013\PROJECTS\DIAMOND SQUARE ALGORITHM\PACKAGES\GLM.0.9.6.1\BUILD\NATIVE\INCLUDE\GLM\DETAIL\TYPE_VEC1.INL
A:\USERS\GOAT\MY DOCUMENTS\VISUAL STUDIO 2013\PROJECTS\DIAMOND SQUARE ALGORITHM\PACKAGES\GLM.0.9.6.1\BUILD\NATIVE\INCLUDE\GLM\EXPONENTIAL.HPP
A:\USERS\GOAT\MY DOCUMENTS\VISUAL STUDIO 2013\PROJECTS\DIAMOND SQUARE ALGORITHM\PACKAGES\GLM.0.9.6.1\BUILD\NATIVE\INCLUDE\GLM\DETAIL\FUNC_EXPONENTIAL.HPP
A:\USERS\GOAT\MY DOCUMENTS\VISUAL STUDIO 2013\PROJECTS\DIAMOND SQUARE ALGORITHM\PACKAGES\GLM.0.9.6.1\BUILD\NATIVE\INCLUDE\GLM\DETAIL\FUNC_EXPONENTIAL.INL
A:\USERS\GOAT\MY DOCUMENTS\VISUAL STUDIO 2013\PROJECTS\DIAMOND SQUARE ALGORITHM\PACKAGES\GLM.0.9.6.1\BUILD\NATIVE\INCLUDE\GLM\DETAIL\FUNC_VECTOR_RELATIONAL.HPP
A:\USERS\GOAT\MY DOCUMENTS\VISUAL STUDIO 2013\PROJECTS\DIAMOND SQUARE ALGORITHM\PACKAGES\GLM.0.9.6.1\BUILD\NATIVE\INCLUDE\GLM\DETAIL\FUNC_VECTOR_RELATIONAL.INL
A:\USERS\GOAT\MY DOCUMENTS\VISUAL STUDIO 2013\PROJECTS\DIAMOND SQUARE ALGORITHM\PACKAGES\GLM.0.9.6.1\BUILD\NATIVE\INCLUDE\GLM\COMMON.HPP
A:\USERS\GOAT\MY DOCUMENTS\VISUAL STUDIO 2013\PROJECTS\DIAMOND SQUARE ALGORITHM\PACKAGES\GLM.0.9.6.1\BUILD\NATIVE\INCLUDE\GLM\DETAIL\FUNC_COMMON.HPP
A:\USERS\GOAT\MY DOCUMENTS\VISUAL STUDIO 2013\PROJECTS\DIAMOND SQUARE ALGORITHM\PACKAGES\GLM.0.9.6.1\BUILD\NATIVE\INCLUDE\GLM\DETAIL\FUNC_COMMON.INL
A:\USERS\GOAT\MY DOCUMENTS\VISUAL STUDIO 2013\PROJECTS\DIAMOND SQUARE ALGORITHM\PACKAGES\GLM.0.9.6.1\BUILD\NATIVE\INCLUDE\GLM\PACKING.HPP
A:\USERS\GOAT\MY DOCUMENTS\VISUAL STUDIO 2013\PROJECTS\DIAMOND SQUARE ALGORITHM\PACKAGES\GLM.0.9.6.1\BUILD\NATIVE\INCLUDE\GLM\DETAIL\FUNC_PACKING.HPP
A:\USERS\GOAT\MY DOCUMENTS\VISUAL STUDIO 2013\PROJECTS\DIAMOND SQUARE ALGORITHM\PACKAGES\GLM.0.9.6.1\BUILD\NATIVE\INCLUDE\GLM\DETAIL\FUNC_PACKING.INL
A:\USERS\GOAT\MY DOCUMENTS\VISUAL STUDIO 2013\PROJECTS\DIAMOND SQUARE ALGORITHM\PACKAGES\GLM.0.9.6.1\BUILD\NATIVE\INCLUDE\GLM\DETAIL\TYPE_HALF.HPP
A:\USERS\GOAT\MY DOCUMENTS\VISUAL STUDIO 2013\PROJECTS\DIAMOND SQUARE ALGORITHM\PACKAGES\GLM.0.9.6.1\BUILD\NATIVE\INCLUDE\GLM\DETAIL\TYPE_HALF.INL
A:\USERS\GOAT\MY DOCUMENTS\VISUAL STUDIO 2013\PROJECTS\DIAMOND SQUARE ALGORITHM\PACKAGES\GLM.0.9.6.1\BUILD\NATIVE\INCLUDE\GLM\GEOMETRIC.HPP
A:\USERS\GOAT\MY DOCUMENTS\VISUAL STUDIO 2013\PROJECTS\DIAMOND SQUARE ALGORITHM\PACKAGES\GLM.0.9.6.1\BUILD\NATIVE\INCLUDE\GLM\DETAIL\FUNC_GEOMETRIC.HPP
A:\USERS\GOAT\MY DOCUMENTS\VISUAL STUDIO 2013\PROJECTS\DIAMOND SQUARE ALGORITHM\PACKAGES\GLM.0.9.6.1\BUILD\NATIVE\INCLUDE\GLM\DETAIL\FUNC_GEOMETRIC.INL
A:\USERS\GOAT\MY DOCUMENTS\VISUAL STUDIO 2013\PROJECTS\DIAMOND SQUARE ALGORITHM\PACKAGES\GLM.0.9.6.1\BUILD\NATIVE\INCLUDE\GLM\MATRIX.HPP
A:\USERS\GOAT\MY DOCUMENTS\VISUAL STUDIO 2013\PROJECTS\DIAMOND SQUARE ALGORITHM\PACKAGES\GLM.0.9.6.1\BUILD\NATIVE\INCLUDE\GLM\DETAIL\FUNC_MATRIX.HPP
A:\USERS\GOAT\MY DOCUMENTS\VISUAL STUDIO 2013\PROJECTS\DIAMOND SQUARE ALGORITHM\PACKAGES\GLM.0.9.6.1\BUILD\NATIVE\INCLUDE\GLM\DETAIL\FUNC_MATRIX.INL
A:\USERS\GOAT\MY DOCUMENTS\VISUAL STUDIO 2013\PROJECTS\DIAMOND SQUARE ALGORITHM\PACKAGES\GLM.0.9.6.1\BUILD\NATIVE\INCLUDE\GLM\VECTOR_RELATIONAL.HPP
A:\USERS\GOAT\MY DOCUMENTS\VISUAL STUDIO 2013\PROJECTS\DIAMOND SQUARE ALGORITHM\PACKAGES\GLM.0.9.6.1\BUILD\NATIVE\INCLUDE\GLM\INTEGER.HPP
A:\USERS\GOAT\MY DOCUMENTS\VISUAL STUDIO 2013\PROJECTS\DIAMOND SQUARE ALGORITHM\PACKAGES\GLM.0.9.6.1\BUILD\NATIVE\INCLUDE\GLM\DETAIL\FUNC_INTEGER.HPP
A:\USERS\GOAT\MY DOCUMENTS\VISUAL STUDIO 2013\PROJECTS\DIAMOND SQUARE ALGORITHM\PACKAGES\GLM.0.9.6.1\BUILD\NATIVE\INCLUDE\GLM\DETAIL\FUNC_INTEGER.INL
A:\PROGRAM FILES (X86)\MICROSOFT VISUAL STUDIO 12.0\VC\INCLUDE\VECTOR
A:\PROGRAM FILES (X86)\MICROSOFT VISUAL STUDIO 12.0\VC\INCLUDE\XMEMORY
A:\PROGRAM FILES (X86)\MICROSOFT VISUAL STUDIO 12.0\VC\INCLUDE\XMEMORY0
A:\PROGRAM FILES (X86)\MICROSOFT VISUAL STUDIO 12.0\VC\INCLUDE\CSTDLIB
A:\PROGRAM FILES (X86)\MICROSOFT VISUAL STUDIO 12.0\VC\INCLUDE\NEW
A:\PROGRAM FILES (X86)\MICROSOFT VISUAL STUDIO 12.0\VC\INCLUDE\EXCEPTION
A:\PROGRAM FILES (X86)\MICROSOFT VISUAL STUDIO 12.0\VC\INCLUDE\EH.H
A:\PROGRAM FILES (X86)\MICROSOFT VISUAL STUDIO 12.0\VC\INCLUDE\MALLOC.H
A:\PROGRAM FILES (X86)\MICROSOFT VISUAL STUDIO 12.0\VC\INCLUDE\STRING.H
A:\PROGRAM FILES (X86)\MICROSOFT VISUAL STUDIO 12.0\VC\INCLUDE\XUTILITY
A:\PROGRAM FILES (X86)\MICROSOFT VISUAL STUDIO 12.0\VC\INCLUDE\UTILITY
A:\PROGRAM FILES (X86)\MICROSOFT VISUAL STUDIO 12.0\VC\INCLUDE\IOSFWD
A:\PROGRAM FILES (X86)\MICROSOFT VISUAL STUDIO 12.0\VC\INCLUDE\CSTDIO
A:\PROGRAM FILES (X86)\MICROSOFT VISUAL STUDIO 12.0\VC\INCLUDE\STDIO.H
A:\PROGRAM FILES (X86)\MICROSOFT VISUAL STUDIO 12.0\VC\INCLUDE\CSTRING
A:\PROGRAM FILES (X86)\MICROSOFT VISUAL STUDIO 12.0\VC\INCLUDE\CRTDBG.H
A:\PROGRAM FILES (X86)\MICROSOFT VISUAL STUDIO 12.0\VC\INCLUDE\XATOMIC0.H
A:\PROGRAM FILES (X86)\MICROSOFT VISUAL STUDIO 12.0\VC\INCLUDE\INTRIN.H
A:\PROGRAM FILES (X86)\MICROSOFT VISUAL STUDIO 12.0\VC\INCLUDE\SETJMP.H
A:\PROGRAM FILES (X86)\MICROSOFT VISUAL STUDIO 12.0\VC\INCLUDE\IMMINTRIN.H
A:\PROGRAM FILES (X86)\MICROSOFT VISUAL STUDIO 12.0\VC\INCLUDE\WMMINTRIN.H
A:\PROGRAM FILES (X86)\MICROSOFT VISUAL STUDIO 12.0\VC\INCLUDE\NMMINTRIN.H
A:\PROGRAM FILES (X86)\MICROSOFT VISUAL STUDIO 12.0\VC\INCLUDE\SMMINTRIN.H
A:\PROGRAM FILES (X86)\MICROSOFT VISUAL STUDIO 12.0\VC\INCLUDE\TMMINTRIN.H
A:\PROGRAM FILES (X86)\MICROSOFT VISUAL STUDIO 12.0\VC\INCLUDE\PMMINTRIN.H
A:\PROGRAM FILES (X86)\MICROSOFT VISUAL STUDIO 12.0\VC\INCLUDE\EMMINTRIN.H
A:\PROGRAM FILES (X86)\MICROSOFT VISUAL STUDIO 12.0\VC\INCLUDE\XMMINTRIN.H
A:\PROGRAM FILES (X86)\MICROSOFT VISUAL STUDIO 12.0\VC\INCLUDE\MMINTRIN.H
A:\PROGRAM FILES (X86)\MICROSOFT VISUAL STUDIO 12.0\VC\INCLUDE\AMMINTRIN.H
A:\PROGRAM FILES (X86)\MICROSOFT VISUAL STUDIO 12.0\VC\INCLUDE\STDEXCEPT
A:\PROGRAM FILES (X86)\MICROSOFT VISUAL STUDIO 12.0\VC\INCLUDE\XSTRING
A:\PROGRAM FILES (X86)\MICROSOFT VISUAL STUDIO 12.0\VC\INCLUDE\MAP
A:\PROGRAM FILES (X86)\MICROSOFT VISUAL STUDIO 12.0\VC\INCLUDE\XTREE
A:\PROGRAM FILES (X86)\MICROSOFT VISUAL STUDIO 12.0\VC\INCLUDE\TUPLE
^A:\USERS\GOAT\MY DOCUMENTS\VISUAL STUDIO 2013\PROJECTS\DIAMOND SQUARE ALGORITHM\DIAMOND SQUARE ALGORITHM\MARCHINGCUBES\MARCHINGCUBES.CPP
A:\USERS\GOAT\MY DOCUMENTS\VISUAL STUDIO 2013\PROJECTS\DIAMOND SQUARE ALGORITHM\DIAMOND SQUARE ALGORITHM\MARCHINGCUBES\MARCHINGCUBES.H
A:\USERS\GOAT\MY DOCUMENTS\VISUAL STUDIO 2013\PROJECTS\DIAMOND SQUARE ALGORITHM\DIAMOND SQUARE ALGORITHM\CORE\GAMEMODELS.H
A:\USERS\GOAT\MY DOCUMENTS\VISUAL STUDIO 2013\PROJECTS\DIAMOND SQUARE ALGORITHM\DIAMOND SQUARE ALGORITHM\DEPENDENCIES\GLEW\GLEW.H
C:\PROGRAM FILES (X86)\WINDOWS KITS\8.1\INCLUDE\UM\GL\GLU.H
C:\PROGRAM FILES (X86)\WINDOWS KITS\8.1\INCLUDE\SHARED\WINAPIFAMILY.H
C:\PROGRAM FILES (X86)\WINDOWS KITS\8.1\INCLUDE\UM\GL\GL.H
A:\USERS\GOAT\MY DOCUMENTS\VISUAL STUDIO 2013\PROJECTS\DIAMOND SQUARE ALGORITHM\DIAMOND SQUARE ALGORITHM\CORE\VERTEXHEADER.H
A:\USERS\GOAT\MY DOCUMENTS\VISUAL STUDIO 2013\PROJECTS\DIAMOND SQUARE ALGORITHM\PACKAGES\GLM.0.9.6.1\BUILD\NATIVE\INCLUDE\GLM\GLM.HPP
A:\USERS\GOAT\MY DOCUMENTS\VISUAL STUDIO 2013\PROJECTS\DIAMOND SQUARE ALGORITHM\PACKAGES\GLM.0.9.6.1\BUILD\NATIVE\INCLUDE\GLM\DETAIL\_FIXES.HPP
A:\PROGRAM FILES (X86)\MICROSOFT VISUAL STUDIO 12.0\VC\INCLUDE\CMATH
A:\PROGRAM FILES (X86)\MICROSOFT VISUAL STUDIO 12.0\VC\INCLUDE\YVALS.H
A:\PROGRAM FILES (X86)\MICROSOFT VISUAL STUDIO 12.0\VC\INCLUDE\XKEYCHECK.H
A:\PROGRAM FILES (X86)\MICROSOFT VISUAL STUDIO 12.0\VC\INCLUDE\CRTDEFS.H
A:\PROGRAM FILES (X86)\MICROSOFT VISUAL STUDIO 12.0\VC\INCLUDE\SAL.H
A:\PROGRAM FILES (X86)\MICROSOFT VISUAL STUDIO 12.0\VC\INCLUDE\CONCURRENCYSAL.H
A:\PROGRAM FILES (X86)\MICROSOFT VISUAL STUDIO 12.0\VC\INCLUDE\VADEFS.H
A:\PROGRAM FILES (X86)\MICROSOFT VISUAL STUDIO 12.0\VC\INCLUDE\USE_ANSI.H
A:\PROGRAM FILES (X86)\MICROSOFT VISUAL STUDIO 12.0\VC\INCLUDE\MATH.H
A:\PROGRAM FILES (X86)\MICROSOFT VISUAL STUDIO 12.0\VC\INCLUDE\XTGMATH.H
A:\PROGRAM FILES (X86)\MICROSOFT VISUAL STUDIO 12.0\VC\INCLUDE\XTR1COMMON
A:\PROGRAM FILES (X86)\MICROSOFT VISUAL STUDIO 12.0\VC\INCLUDE\CLIMITS
A:\PROGRAM FILES (X86)\MICROSOFT VISUAL STUDIO 12.0\VC\INCLUDE\LIMITS.H
A:\PROGRAM FILES (X86)\MICROSOFT VISUAL STUDIO 12.0\VC\INCLUDE\CFLOAT
A:\PROGRAM FILES (X86)\MICROSOFT VISUAL STUDIO 12.0\VC\INCLUDE\FLOAT.H
A:\PROGRAM FILES (X86)\MICROSOFT VISUAL STUDIO 12.0\VC\INCLUDE\CRTWRN.H
A:\PROGRAM FILES (X86)\MICROSOFT VISUAL STUDIO 12.0\VC\INCLUDE\LIMITS
A:\PROGRAM FILES (X86)\MICROSOFT VISUAL STUDIO 12.0\VC\INCLUDE\YMATH.H
A:\PROGRAM FILES (X86)\MICROSOFT VISUAL STUDIO 12.0\VC\INCLUDE\CWCHAR
A:\PROGRAM FILES (X86)\MICROSOFT VISUAL STUDIO 12.0\VC\INCLUDE\WCHAR.H
A:\PROGRAM FILES (X86)\MICROSOFT VISUAL STUDIO 12.0\VC\INCLUDE\SWPRINTF.INL
A:\PROGRAM FILES (X86)\MICROSOFT VISUAL STUDIO 12.0\VC\INCLUDE\WTIME.INL
A:\PROGRAM FILES (X86)\MICROSOFT VISUAL STUDIO 12.0\VC\INCLUDE\XSTDDEF
A:\PROGRAM FILES (X86)\MICROSOFT VISUAL STUDIO 12.0\VC\INCLUDE\STDLIB.H
A:\PROGRAM FILES (X86)\MICROSOFT VISUAL STUDIO 12.0\VC\INCLUDE\CSTDDEF
A:\PROGRAM FILES (X86)\MICROSOFT VISUAL STUDIO 12.0\VC\INCLUDE\STDDEF.H
A:\PROGRAM FILES (X86)\MICROSOFT VISUAL STUDIO 12.0\VC\INCLUDE\INITIALIZER_LIST
A:\PROGRAM FILES (X86)\MICROSOFT VISUAL STUDIO 12.0\VC\INCLUDE\CASSERT
A:\PROGRAM FILES (X86)\MICROSOFT VISUAL STUDIO 12.0\VC\INCLUDE\ASSERT.H
A:\USERS\GOAT\MY DOCUMENTS\VISUAL STUDIO 2013\PROJECTS\DIAMOND SQUARE ALGORITHM\PACKAGES\GLM.0.9.6.1\BUILD\NATIVE\INCLUDE\GLM\FWD.HPP
A:\USERS\GOAT\MY DOCUMENTS\VISUAL STUDIO 2013\PROJECTS\DIAMOND SQUARE ALGORITHM\PACKAGES\GLM.0.9.6.1\BUILD\NATIVE\INCLUDE\GLM\DETAIL\TYPE_INT.HPP
A:\USERS\GOAT\MY DOCUMENTS\VISUAL STUDIO 2013\PROJECTS\DIAMOND SQUARE ALGORITHM\PACKAGES\GLM.0.9.6.1\BUILD\NATIVE\INCLUDE\GLM\DETAIL\SETUP.HPP
A:\PROGRAM FILES (X86)\MICROSOFT VISUAL STUDIO 12.0\VC\INCLUDE\TYPE_TRAITS
A:\PROGRAM FILES (X86)\MICROSOFT VISUAL STUDIO 12.0\VC\INCLUDE\XREFWRAP
A:\PROGRAM FILES (X86)\MICROSOFT VISUAL STUDIO 12.0\VC\INCLUDE\CSTDINT
A:\PROGRAM FILES (X86)\MICROSOFT VISUAL STUDIO 12.0\VC\INCLUDE\STDINT.H
A:\USERS\GOAT\MY DOCUMENTS\VISUAL STUDIO 2013\PROJECTS\DIAMOND SQUARE ALGORITHM\PACKAGES\GLM.0.9.6.1\BUILD\NATIVE\INCLUDE\GLM\DETAIL\TYPE_FLOAT.HPP
A:\USERS\GOAT\MY DOCUMENTS\VISUAL STUDIO 2013\PROJECTS\DIAMOND SQUARE ALGORITHM\PACKAGES\GLM.0.9.6.1\BUILD\NATIVE\INCLUDE\GLM\DETAIL\TYPE_VEC.HPP
A:\USERS\GOAT\MY DOCUMENTS\VISUAL STUDIO 2013\PROJECTS\DIAMOND SQUARE ALGORITHM\PACKAGES\GLM.0.9.6.1\BUILD\NATIVE\INCLUDE\GLM\DETAIL\PRECISION.HPP
A:\USERS\GOAT\MY DOCUMENTS\VISUAL STUDIO 2013\PROJECTS\DIAMOND SQUARE ALGORITHM\PACKAGES\GLM.0.9.6.1\BUILD\NATIVE\INCLUDE\GLM\DETAIL\TYPE_MAT.HPP
A:\USERS\GOAT\MY DOCUMENTS\VISUAL STUDIO 2013\PROJECTS\DIAMOND SQUARE ALGORITHM\PACKAGES\GLM.0.9.6.1\BUILD\NATIVE\INCLUDE\GLM\VEC2.HPP
A:\USERS\GOAT\MY DOCUMENTS\VISUAL STUDIO 2013\PROJECTS\DIAMOND SQUARE ALGORITHM\PACKAGES\GLM.0.9.6.1\BUILD\NATIVE\INCLUDE\GLM\DETAIL\TYPE_VEC2.HPP
A:\USERS\GOAT\MY DOCUMENTS\VISUAL STUDIO 2013\PROJECTS\DIAMOND SQUARE ALGORITHM\PACKAGES\GLM.0.9.6.1\BUILD\NATIVE\INCLUDE\GLM\DETAIL\TYPE_VEC2.INL
A:\USERS\GOAT\MY DOCUMENTS\VISUAL STUDIO 2013\PROJECTS\DIAMOND SQUARE ALGORITHM\PACKAGES\GLM.0.9.6.1\BUILD\NATIVE\INCLUDE\GLM\VEC3.HPP
A:\USERS\GOAT\MY DOCUMENTS\VISUAL STUDIO 2013\PROJECTS\DIAMOND SQUARE ALGORITHM\PACKAGES\GLM.0.9.6.1\BUILD\NATIVE\INCLUDE\GLM\DETAIL\TYPE_VEC3.HPP
A:\USERS\GOAT\MY DOCUMENTS\VISUAL STUDIO 2013\PROJECTS\DIAMOND SQUARE ALGORITHM\PACKAGES\GLM.0.9.6.1\BUILD\NATIVE\INCLUDE\GLM\DETAIL\TYPE_VEC3.INL
A:\USERS\GOAT\MY DOCUMENTS\VISUAL STUDIO 2013\PROJECTS\DIAMOND SQUARE ALGORITHM\PACKAGES\GLM.0.9.6.1\BUILD\NATIVE\INCLUDE\GLM\VEC4.HPP
A:\USERS\GOAT\MY DOCUMENTS\VISUAL STUDIO 2013\PROJECTS\DIAMOND SQUARE ALGORITHM\PACKAGES\GLM.0.9.6.1\BUILD\NATIVE\INCLUDE\GLM\DETAIL\TYPE_VEC4.HPP
A:\USERS\GOAT\MY DOCUMENTS\VISUAL STUDIO 2013\PROJECTS\DIAMOND SQUARE ALGORITHM\PACKAGES\GLM.0.9.6.1\BUILD\NATIVE\INCLUDE\GLM\DETAIL\TYPE_VEC4.INL
A:\USERS\GOAT\MY DOCUMENTS\VISUAL STUDIO 2013\PROJECTS\DIAMOND SQUARE ALGORITHM\PACKAGES\GLM.0.9.6.1\BUILD\NATIVE\INCLUDE\GLM\MAT2X2.HPP
A:\USERS\GOAT\MY DOCUMENTS\VISUAL STUDIO 2013\PROJECTS\DIAMOND SQUARE ALGORITHM\PACKAGES\GLM.0.9.6.1\BUILD\NATIVE\INCLUDE\GLM\DETAIL\TYPE_MAT2X2.HPP
A:\USERS\GOAT\MY DOCUMENTS\VISUAL STUDIO 2013\PROJECTS\DIAMOND SQUARE ALGORITHM\PACKAGES\GLM.0.9.6.1\BUILD\NATIVE\INCLUDE\GLM\DETAIL\TYPE_MAT2X2.INL
A:\USERS\GOAT\MY DOCUMENTS\VISUAL STUDIO 2013\PROJECTS\DIAMOND SQUARE ALGORITHM\PACKAGES\GLM.0.9.6.1\BUILD\NATIVE\INCLUDE\GLM\MAT2X3.HPP
A:\USERS\GOAT\MY DOCUMENTS\VISUAL STUDIO 2013\PROJECTS\DIAMOND SQUARE ALGORITHM\PACKAGES\GLM.0.9.6.1\BUILD\NATIVE\INCLUDE\GLM\DETAIL\TYPE_MAT2X3.HPP
A:\USERS\GOAT\MY DOCUMENTS\VISUAL STUDIO 2013\PROJECTS\DIAMOND SQUARE ALGORITHM\PACKAGES\GLM.0.9.6.1\BUILD\NATIVE\INCLUDE\GLM\DETAIL\TYPE_MAT2X3.INL
A:\USERS\GOAT\MY DOCUMENTS\VISUAL STUDIO 2013\PROJECTS\DIAMOND SQUARE ALGORITHM\PACKAGES\GLM.0.9.6.1\BUILD\NATIVE\INCLUDE\GLM\MAT2X4.HPP
A:\USERS\GOAT\MY DOCUMENTS\VISUAL STUDIO 2013\PROJECTS\DIAMOND SQUARE ALGORITHM\PACKAGES\GLM.0.9.6.1\BUILD\NATIVE\INCLUDE\GLM\DETAIL\TYPE_MAT2X4.HPP
A:\USERS\GOAT\MY DOCUMENTS\VISUAL STUDIO 2013\PROJECTS\DIAMOND SQUARE ALGORITHM\PACKAGES\GLM.0.9.6.1\BUILD\NATIVE\INCLUDE\GLM\DETAIL\TYPE_MAT2X4.INL
A:\USERS\GOAT\MY DOCUMENTS\VISUAL STUDIO 2013\PROJECTS\DIAMOND SQUARE ALGORITHM\PACKAGES\GLM.0.9.6.1\BUILD\NATIVE\INCLUDE\GLM\MAT3X2.HPP
A:\USERS\GOAT\MY DOCUMENTS\VISUAL STUDIO 2013\PROJECTS\DIAMOND SQUARE ALGORITHM\PACKAGES\GLM.0.9.6.1\BUILD\NATIVE\INCLUDE\GLM\DETAIL\TYPE_MAT3X2.HPP
A:\USERS\GOAT\MY DOCUMENTS\VISUAL STUDIO 2013\PROJECTS\DIAMOND SQUARE ALGORITHM\PACKAGES\GLM.0.9.6.1\BUILD\NATIVE\INCLUDE\GLM\DETAIL\TYPE_MAT3X2.INL
A:\USERS\GOAT\MY DOCUMENTS\VISUAL STUDIO 2013\PROJECTS\DIAMOND SQUARE ALGORITHM\PACKAGES\GLM.0.9.6.1\BUILD\NATIVE\INCLUDE\GLM\MAT3X3.HPP
A:\USERS\GOAT\MY DOCUMENTS\VISUAL STUDIO 2013\PROJECTS\DIAMOND SQUARE ALGORITHM\PACKAGES\GLM.0.9.6.1\BUILD\NATIVE\INCLUDE\GLM\DETAIL\TYPE_MAT3X3.HPP
A:\USERS\GOAT\MY DOCUMENTS\VISUAL STUDIO 2013\PROJECTS\DIAMOND SQUARE ALGORITHM\PACKAGES\GLM.0.9.6.1\BUILD\NATIVE\INCLUDE\GLM\DETAIL\TYPE_MAT3X3.INL
A:\USERS\GOAT\MY DOCUMENTS\VISUAL STUDIO 2013\PROJECTS\DIAMOND SQUARE ALGORITHM\PACKAGES\GLM.0.9.6.1\BUILD\NATIVE\INCLUDE\GLM\MAT3X4.HPP
A:\USERS\GOAT\MY DOCUMENTS\VISUAL STUDIO 2013\PROJECTS\DIAMOND SQUARE ALGORITHM\PACKAGES\GLM.0.9.6.1\BUILD\NATIVE\INCLUDE\GLM\DETAIL\TYPE_MAT3X4.HPP
A:\USERS\GOAT\MY DOCUMENTS\VISUAL STUDIO 2013\PROJECTS\DIAMOND SQUARE ALGORITHM\PACKAGES\GLM.0.9.6.1\BUILD\NATIVE\INCLUDE\GLM\DETAIL\TYPE_MAT3X4.INL
A:\USERS\GOAT\MY DOCUMENTS\VISUAL STUDIO 2013\PROJECTS\DIAMOND SQUARE ALGORITHM\PACKAGES\GLM.0.9.6.1\BUILD\NATIVE\INCLUDE\GLM\MAT4X2.HPP
A:\USERS\GOAT\MY DOCUMENTS\VISUAL STUDIO 2013\PROJECTS\DIAMOND SQUARE ALGORITHM\PACKAGES\GLM.0.9.6.1\BUILD\NATIVE\INCLUDE\GLM\DETAIL\TYPE_MAT4X2.HPP
A:\USERS\GOAT\MY DOCUMENTS\VISUAL STUDIO 2013\PROJECTS\DIAMOND SQUARE ALGORITHM\PACKAGES\GLM.0.9.6.1\BUILD\NATIVE\INCLUDE\GLM\DETAIL\TYPE_MAT4X2.INL
A:\USERS\GOAT\MY DOCUMENTS\VISUAL STUDIO 2013\PROJECTS\DIAMOND SQUARE ALGORITHM\PACKAGES\GLM.0.9.6.1\BUILD\NATIVE\INCLUDE\GLM\MAT4X3.HPP
A:\USERS\GOAT\MY DOCUMENTS\VISUAL STUDIO 2013\PROJECTS\DIAMOND SQUARE ALGORITHM\PACKAGES\GLM.0.9.6.1\BUILD\NATIVE\INCLUDE\GLM\DETAIL\TYPE_MAT4X3.HPP
A:\USERS\GOAT\MY DOCUMENTS\VISUAL STUDIO 2013\PROJECTS\DIAMOND SQUARE ALGORITHM\PACKAGES\GLM.0.9.6.1\BUILD\NATIVE\INCLUDE\GLM\DETAIL\TYPE_MAT4X3.INL
A:\USERS\GOAT\MY DOCUMENTS\VISUAL STUDIO 2013\PROJECTS\DIAMOND SQUARE ALGORITHM\PACKAGES\GLM.0.9.6.1\BUILD\NATIVE\INCLUDE\GLM\MAT4X4.HPP
A:\USERS\GOAT\MY DOCUMENTS\VISUAL STUDIO 2013\PROJECTS\DIAMOND SQUARE ALGORITHM\PACKAGES\GLM.0.9.6.1\BUILD\NATIVE\INCLUDE\GLM\DETAIL\TYPE_MAT4X4.HPP
A:\USERS\GOAT\MY DOCUMENTS\VISUAL STUDIO 2013\PROJECTS\DIAMOND SQUARE ALGORITHM\PACKAGES\GLM.0.9.6.1\BUILD\NATIVE\INCLUDE\GLM\DETAIL\TYPE_MAT4X4.INL
A:\USERS\GOAT\MY DOCUMENTS\VISUAL STUDIO 2013\PROJECTS\DIAMOND SQUARE ALGORITHM\PACKAGES\GLM.0.9.6.1\BUILD\NATIVE\INCLUDE\GLM\TRIGONOMETRIC.HPP
A:\USERS\GOAT\MY DOCUMENTS\VISUAL STUDIO 2013\PROJECTS\DIAMOND SQUARE ALGORITHM\PACKAGES\GLM.0.9.6.1\BUILD\NATIVE\INCLUDE\GLM\DETAIL\FUNC_TRIGONOMETRIC.HPP
A:\USERS\GOAT\MY DOCUMENTS\VISUAL STUDIO 2013\PROJECTS\DIAMOND SQUARE ALGORITHM\PACKAGES\GLM.0.9.6.1\BUILD\NATIVE\INCLUDE\GLM\DETAIL\FUNC_TRIGONOMETRIC.INL
A:\USERS\GOAT\MY DOCUMENTS\VISUAL STUDIO 2013\PROJECTS\DIAMOND SQUARE ALGORITHM\PACKAGES\GLM.0.9.6.1\BUILD\NATIVE\INCLUDE\GLM\DETAIL\_VECTORIZE.HPP
A:\USERS\GOAT\MY DOCUMENTS\VISUAL STUDIO 2013\PROJECTS\DIAMOND SQUARE ALGORITHM\PACKAGES\GLM.0.9.6.1\BUILD\NATIVE\INCLUDE\GLM\DETAIL\TYPE_VEC1.HPP
A:\USERS\GOAT\MY DOCUMENTS\VISUAL STUDIO 2013\PROJECTS\DIAMOND SQUARE ALGORITHM\PACKAGES\GLM.0.9.6.1\BUILD\NATIVE\INCLUDE\GLM\DETAIL\TYPE_VEC1.INL
A:\USERS\GOAT\MY DOCUMENTS\VISUAL STUDIO 2013\PROJECTS\DIAMOND SQUARE ALGORITHM\PACKAGES\GLM.0.9.6.1\BUILD\NATIVE\INCLUDE\GLM\EXPONENTIAL.HPP
A:\USERS\GOAT\MY DOCUMENTS\VISUAL STUDIO 2013\PROJECTS\DIAMOND SQUARE ALGORITHM\PACKAGES\GLM.0.9.6.1\BUILD\NATIVE\INCLUDE\GLM\DETAIL\FUNC_EXPONENTIAL.HPP
A:\USERS\GOAT\MY DOCUMENTS\VISUAL STUDIO 2013\PROJECTS\DIAMOND SQUARE ALGORITHM\PACKAGES\GLM.0.9.6.1\BUILD\NATIVE\INCLUDE\GLM\DETAIL\FUNC_EXPONENTIAL.INL
A:\USERS\GOAT\MY DOCUMENTS\VISUAL STUDIO 2013\PROJECTS\DIAMOND SQUARE ALGORITHM\PACKAGES\GLM.0.9.6.1\BUILD\NATIVE\INCLUDE\GLM\DETAIL\FUNC_VECTOR_RELATIONAL.HPP
A:\USERS\GOAT\MY DOCUMENTS\VISUAL STUDIO 2013\PROJECTS\DIAMOND SQUARE ALGORITHM\PACKAGES\GLM.0.9.6.1\BUILD\NATIVE\INCLUDE\GLM\DETAIL\FUNC_VECTOR_RELATIONAL.INL
A:\USERS\GOAT\MY DOCUMENTS\VISUAL STUDIO 2013\PROJECTS\DIAMOND SQUARE ALGORITHM\PACKAGES\GLM.0.9.6.1\BUILD\NATIVE\INCLUDE\GLM\COMMON.HPP
A:\USERS\GOAT\MY DOCUMENTS\VISUAL STUDIO 2013\PROJECTS\DIAMOND SQUARE ALGORITHM\PACKAGES\GLM.0.9.6.1\BUILD\NATIVE\INCLUDE\GLM\DETAIL\FUNC_COMMON.HPP
A:\USERS\GOAT\MY DOCUMENTS\VISUAL STUDIO 2013\PROJECTS\DIAMOND SQUARE ALGORITHM\PACKAGES\GLM.0.9.6.1\BUILD\NATIVE\INCLUDE\GLM\DETAIL\FUNC_COMMON.INL
A:\USERS\GOAT\MY DOCUMENTS\VISUAL STUDIO 2013\PROJECTS\DIAMOND SQUARE ALGORITHM\PACKAGES\GLM.0.9.6.1\BUILD\NATIVE\INCLUDE\GLM\PACKING.HPP
A:\USERS\GOAT\MY DOCUMENTS\VISUAL STUDIO 2013\PROJECTS\DIAMOND SQUARE ALGORITHM\PACKAGES\GLM.0.9.6.1\BUILD\NATIVE\INCLUDE\GLM\DETAIL\FUNC_PACKING.HPP
A:\USERS\GOAT\MY DOCUMENTS\VISUAL STUDIO 2013\PROJECTS\DIAMOND SQUARE ALGORITHM\PACKAGES\GLM.0.9.6.1\BUILD\NATIVE\INCLUDE\GLM\DETAIL\FUNC_PACKING.INL
A:\USERS\GOAT\MY DOCUMENTS\VISUAL STUDIO 2013\PROJECTS\DIAMOND SQUARE ALGORITHM\PACKAGES\GLM.0.9.6.1\BUILD\NATIVE\INCLUDE\GLM\DETAIL\TYPE_HALF.HPP
A:\USERS\GOAT\MY DOCUMENTS\VISUAL STUDIO 2013\PROJECTS\DIAMOND SQUARE ALGORITHM\PACKAGES\GLM.0.9.6.1\BUILD\NATIVE\INCLUDE\GLM\DETAIL\TYPE_HALF.INL
A:\USERS\GOAT\MY DOCUMENTS\VISUAL STUDIO 2013\PROJECTS\DIAMOND SQUARE ALGORITHM\PACKAGES\GLM.0.9.6.1\BUILD\NATIVE\INCLUDE\GLM\GEOMETRIC.HPP
A:\USERS\GOAT\MY DOCUMENTS\VISUAL STUDIO 2013\PROJECTS\DIAMOND SQUARE ALGORITHM\PACKAGES\GLM.0.9.6.1\BUILD\NATIVE\INCLUDE\GLM\DETAIL\FUNC_GEOMETRIC.HPP
A:\USERS\GOAT\MY DOCUMENTS\VISUAL STUDIO 2013\PROJECTS\DIAMOND SQUARE ALGORITHM\PACKAGES\GLM.0.9.6.1\BUILD\NATIVE\INCLUDE\GLM\DETAIL\FUNC_GEOMETRIC.INL
A:\USERS\GOAT\MY DOCUMENTS\VISUAL STUDIO 2013\PROJECTS\DIAMOND SQUARE ALGORITHM\PACKAGES\GLM.0.9.6.1\BUILD\NATIVE\INCLUDE\GLM\MATRIX.HPP
A:\USERS\GOAT\MY DOCUMENTS\VISUAL STUDIO 2013\PROJECTS\DIAMOND SQUARE ALGORITHM\PACKAGES\GLM.0.9.6.1\BUILD\NATIVE\INCLUDE\GLM\DETAIL\FUNC_MATRIX.HPP
A:\USERS\GOAT\MY DOCUMENTS\VISUAL STUDIO 2013\PROJECTS\DIAMOND SQUARE ALGORITHM\PACKAGES\GLM.0.9.6.1\BUILD\NATIVE\INCLUDE\GLM\DETAIL\FUNC_MATRIX.INL
A:\USERS\GOAT\MY DOCUMENTS\VISUAL STUDIO 2013\PROJECTS\DIAMOND SQUARE ALGORITHM\PACKAGES\GLM.0.9.6.1\BUILD\NATIVE\INCLUDE\GLM\VECTOR_RELATIONAL.HPP
A:\USERS\GOAT\MY DOCUMENTS\VISUAL STUDIO 2013\PROJECTS\DIAMOND SQUARE ALGORITHM\PACKAGES\GLM.0.9.6.1\BUILD\NATIVE\INCLUDE\GLM\INTEGER.HPP
A:\USERS\GOAT\MY DOCUMENTS\VISUAL STUDIO 2013\PROJECTS\DIAMOND SQUARE ALGORITHM\PACKAGES\GLM.0.9.6.1\BUILD\NATIVE\INCLUDE\GLM\DETAIL\FUNC_INTEGER.HPP
A:\USERS\GOAT\MY DOCUMENTS\VISUAL STUDIO 2013\PROJECTS\DIAMOND SQUARE ALGORITHM\PACKAGES\GLM.0.9.6.1\BUILD\NATIVE\INCLUDE\GLM\DETAIL\FUNC_INTEGER.INL
A:\PROGRAM FILES (X86)\MICROSOFT VISUAL STUDIO 12.0\VC\INCLUDE\VECTOR
A:\PROGRAM FILES (X86)\MICROSOFT VISUAL STUDIO 12.0\VC\INCLUDE\XMEMORY
A:\PROGRAM FILES (X86)\MICROSOFT VISUAL STUDIO 12.0\VC\INCLUDE\XMEMORY0
A:\PROGRAM FILES (X86)\MICROSOFT VISUAL STUDIO 12.0\VC\INCLUDE\CSTDLIB
A:\PROGRAM FILES (X86)\MICROSOFT VISUAL STUDIO 12.0\VC\INCLUDE\NEW
A:\PROGRAM FILES (X86)\MICROSOFT VISUAL STUDIO 12.0\VC\INCLUDE\EXCEPTION
A:\PROGRAM FILES (X86)\MICROSOFT VISUAL STUDIO 12.0\VC\INCLUDE\EH.H
A:\PROGRAM FILES (X86)\MICROSOFT VISUAL STUDIO 12.0\VC\INCLUDE\MALLOC.H
A:\PROGRAM FILES (X86)\MICROSOFT VISUAL STUDIO 12.0\VC\INCLUDE\STRING.H
A:\PROGRAM FILES (X86)\MICROSOFT VISUAL STUDIO 12.0\VC\INCLUDE\XUTILITY
A:\PROGRAM FILES (X86)\MICROSOFT VISUAL STUDIO 12.0\VC\INCLUDE\UTILITY
A:\PROGRAM FILES (X86)\MICROSOFT VISUAL STUDIO 12.0\VC\INCLUDE\IOSFWD
A:\PROGRAM FILES (X86)\MICROSOFT VISUAL STUDIO 12.0\VC\INCLUDE\CSTDIO
A:\PROGRAM FILES (X86)\MICROSOFT VISUAL STUDIO 12.0\VC\INCLUDE\STDIO.H
A:\PROGRAM FILES (X86)\MICROSOFT VISUAL STUDIO 12.0\VC\INCLUDE\CSTRING
A:\PROGRAM FILES (X86)\MICROSOFT VISUAL STUDIO 12.0\VC\INCLUDE\CRTDBG.H
A:\PROGRAM FILES (X86)\MICROSOFT VISUAL STUDIO 12.0\VC\INCLUDE\XATOMIC0.H
A:\PROGRAM FILES (X86)\MICROSOFT VISUAL STUDIO 12.0\VC\INCLUDE\INTRIN.H
A:\PROGRAM FILES (X86)\MICROSOFT VISUAL STUDIO 12.0\VC\INCLUDE\SETJMP.H
A:\PROGRAM FILES (X86)\MICROSOFT VISUAL STUDIO 12.0\VC\INCLUDE\IMMINTRIN.H
A:\PROGRAM FILES (X86)\MICROSOFT VISUAL STUDIO 12.0\VC\INCLUDE\WMMINTRIN.H
A:\PROGRAM FILES (X86)\MICROSOFT VISUAL STUDIO 12.0\VC\INCLUDE\NMMINTRIN.H
A:\PROGRAM FILES (X86)\MICROSOFT VISUAL STUDIO 12.0\VC\INCLUDE\SMMINTRIN.H
A:\PROGRAM FILES (X86)\MICROSOFT VISUAL STUDIO 12.0\VC\INCLUDE\TMMINTRIN.H
A:\PROGRAM FILES (X86)\MICROSOFT VISUAL STUDIO 12.0\VC\INCLUDE\PMMINTRIN.H
A:\PROGRAM FILES (X86)\MICROSOFT VISUAL STUDIO 12.0\VC\INCLUDE\EMMINTRIN.H
A:\PROGRAM FILES (X86)\MICROSOFT VISUAL STUDIO 12.0\VC\INCLUDE\XMMINTRIN.H
A:\PROGRAM FILES (X86)\MICROSOFT VISUAL STUDIO 12.0\VC\INCLUDE\MMINTRIN.H
A:\PROGRAM FILES (X86)\MICROSOFT VISUAL STUDIO 12.0\VC\INCLUDE\AMMINTRIN.H
A:\PROGRAM FILES (X86)\MICROSOFT VISUAL STUDIO 12.0\VC\INCLUDE\STDEXCEPT
A:\PROGRAM FILES (X86)\MICROSOFT VISUAL STUDIO 12.0\VC\INCLUDE\XSTRING
A:\PROGRAM FILES (X86)\MICROSOFT VISUAL STUDIO 12.0\VC\INCLUDE\MAP
A:\PROGRAM FILES (X86)\MICROSOFT VISUAL STUDIO 12.0\VC\INCLUDE\XTREE
A:\PROGRAM FILES (X86)\MICROSOFT VISUAL STUDIO 12.0\VC\INCLUDE\TUPLE
C:\PROGRAM FILES\BULLGUARD LTD\BULLGUARD\BULLGUARD.EXE
C:\WINDOWS\SYSTEM32\SVCHOST.EXE
C:\WINDOWS\SYSTEM32\RUNDLL32.EXE
C:\WINDOWS\GLOBALIZATION\SORTING\SORTDEFAULT.NLS
A:\PROGRAM FILES (X86)\MICROSOFT VISUAL STUDIO 12.0\VC\BIN\X86_AMD64\1033\CLUI.DLL
C:\WINDOWS\SYSTEM32\RSAENH.DLL
C:\WINDOWS\SYSTEM32\TZRES.DLL
