^A:\USERS\GOAT\MY DOCUMENTS\VISUAL STUDIO 2013\PROJECTS\DIAMOND SQUARE ALGORITHM\DIAMOND SQUARE ALGORITHM\MAIN.CPP
A:\USERS\GOAT\MY DOCUMENTS\VISUAL STUDIO 2013\PROJECTS\DIAMOND SQUARE ALGORITHM\DIAMOND SQUARE ALGORITHM\X64\DEBUG\VC120.PDB
A:\USERS\GOAT\MY DOCUMENTS\VISUAL STUDIO 2013\PROJECTS\DIAMOND SQUARE ALGORITHM\DIAMOND SQUARE ALGORITHM\X64\DEBUG\VC120.IDB
A:\USERS\GOAT\MY DOCUMENTS\VISUAL STUDIO 2013\PROJECTS\DIAMOND SQUARE ALGORITHM\DIAMOND SQUARE ALGORITHM\X64\DEBUG\MAIN.OBJ
^A:\USERS\GOAT\MY DOCUMENTS\VISUAL STUDIO 2013\PROJECTS\DIAMOND SQUARE ALGORITHM\DIAMOND SQUARE ALGORITHM\SHADERLOADER.CPP
A:\USERS\GOAT\MY DOCUMENTS\VISUAL STUDIO 2013\PROJECTS\DIAMOND SQUARE ALGORITHM\DIAMOND SQUARE ALGORITHM\X64\DEBUG\VC120.PDB
A:\USERS\GOAT\MY DOCUMENTS\VISUAL STUDIO 2013\PROJECTS\DIAMOND SQUARE ALGORITHM\DIAMOND SQUARE ALGORITHM\X64\DEBUG\VC120.IDB
A:\USERS\GOAT\MY DOCUMENTS\VISUAL STUDIO 2013\PROJECTS\DIAMOND SQUARE ALGORITHM\DIAMOND SQUARE ALGORITHM\X64\DEBUG\SHADERLOADER.OBJ
^A:\USERS\GOAT\MY DOCUMENTS\VISUAL STUDIO 2013\PROJECTS\DIAMOND SQUARE ALGORITHM\DIAMOND SQUARE ALGORITHM\CORE\SHADERLOADER.CPP
A:\USERS\GOAT\MY DOCUMENTS\VISUAL STUDIO 2013\PROJECTS\DIAMOND SQUARE ALGORITHM\DIAMOND SQUARE ALGORITHM\X64\DEBUG\VC120.PDB
A:\USERS\GOAT\MY DOCUMENTS\VISUAL STUDIO 2013\PROJECTS\DIAMOND SQUARE ALGORITHM\DIAMOND SQUARE ALGORITHM\X64\DEBUG\VC120.IDB
A:\USERS\GOAT\MY DOCUMENTS\VISUAL STUDIO 2013\PROJECTS\DIAMOND SQUARE ALGORITHM\DIAMOND SQUARE ALGORITHM\X64\DEBUG\SHADERLOADER.OBJ
^A:\USERS\GOAT\MY DOCUMENTS\VISUAL STUDIO 2013\PROJECTS\DIAMOND SQUARE ALGORITHM\DIAMOND SQUARE ALGORITHM\CORE\GAMEMODELS.CPP|A:\USERS\GOAT\MY DOCUMENTS\VISUAL STUDIO 2013\PROJECTS\DIAMOND SQUARE ALGORITHM\DIAMOND SQUARE ALGORITHM\CORE\SHADERLOADER.CPP|A:\USERS\GOAT\MY DOCUMENTS\VISUAL STUDIO 2013\PROJECTS\DIAMOND SQUARE ALGORITHM\DIAMOND SQUARE ALGORITHM\MAIN.CPP
A:\USERS\GOAT\MY DOCUMENTS\VISUAL STUDIO 2013\PROJECTS\DIAMOND SQUARE ALGORITHM\DIAMOND SQUARE ALGORITHM\X64\DEBUG\VC120.PDB
A:\USERS\GOAT\MY DOCUMENTS\VISUAL STUDIO 2013\PROJECTS\DIAMOND SQUARE ALGORITHM\DIAMOND SQUARE ALGORITHM\X64\DEBUG\VC120.IDB
A:\USERS\GOAT\MY DOCUMENTS\VISUAL STUDIO 2013\PROJECTS\DIAMOND SQUARE ALGORITHM\DIAMOND SQUARE ALGORITHM\X64\DEBUG\GAMEMODELS.OBJ
A:\USERS\GOAT\MY DOCUMENTS\VISUAL STUDIO 2013\PROJECTS\DIAMOND SQUARE ALGORITHM\DIAMOND SQUARE ALGORITHM\X64\DEBUG\MAIN.OBJ
A:\USERS\GOAT\MY DOCUMENTS\VISUAL STUDIO 2013\PROJECTS\DIAMOND SQUARE ALGORITHM\DIAMOND SQUARE ALGORITHM\X64\DEBUG\SHADERLOADER.OBJ
^A:\USERS\GOAT\MY DOCUMENTS\VISUAL STUDIO 2013\PROJECTS\DIAMOND SQUARE ALGORITHM\DIAMOND SQUARE ALGORITHM\CORE\GAMEMODELS.CPP
A:\USERS\GOAT\MY DOCUMENTS\VISUAL STUDIO 2013\PROJECTS\DIAMOND SQUARE ALGORITHM\DIAMOND SQUARE ALGORITHM\X64\DEBUG\VC120.PDB
^A:\USERS\GOAT\MY DOCUMENTS\VISUAL STUDIO 2013\PROJECTS\DIAMOND SQUARE ALGORITHM\DIAMOND SQUARE ALGORITHM\CORE\GAMEMODELS.CPP|A:\USERS\GOAT\MY DOCUMENTS\VISUAL STUDIO 2013\PROJECTS\DIAMOND SQUARE ALGORITHM\DIAMOND SQUARE ALGORITHM\MAIN.CPP
A:\USERS\GOAT\MY DOCUMENTS\VISUAL STUDIO 2013\PROJECTS\DIAMOND SQUARE ALGORITHM\DIAMOND SQUARE ALGORITHM\X64\DEBUG\VC120.PDB
A:\USERS\GOAT\MY DOCUMENTS\VISUAL STUDIO 2013\PROJECTS\DIAMOND SQUARE ALGORITHM\DIAMOND SQUARE ALGORITHM\X64\DEBUG\VC120.IDB
A:\USERS\GOAT\MY DOCUMENTS\VISUAL STUDIO 2013\PROJECTS\DIAMOND SQUARE ALGORITHM\DIAMOND SQUARE ALGORITHM\X64\DEBUG\MAIN.OBJ
A:\USERS\GOAT\MY DOCUMENTS\VISUAL STUDIO 2013\PROJECTS\DIAMOND SQUARE ALGORITHM\DIAMOND SQUARE ALGORITHM\X64\DEBUG\GAMEMODELS.OBJ
^A:\USERS\GOAT\MY DOCUMENTS\VISUAL STUDIO 2013\PROJECTS\DIAMOND SQUARE ALGORITHM\DIAMOND SQUARE ALGORITHM\CORE\GAMEMODELS.CPP|A:\USERS\GOAT\MY DOCUMENTS\VISUAL STUDIO 2013\PROJECTS\DIAMOND SQUARE ALGORITHM\DIAMOND SQUARE ALGORITHM\MAIN.CPP|A:\USERS\GOAT\MY DOCUMENTS\VISUAL STUDIO 2013\PROJECTS\DIAMOND SQUARE ALGORITHM\DIAMOND SQUARE ALGORITHM\MARCHINGCUBES\MARCHINGCUBES.CPP
A:\USERS\GOAT\MY DOCUMENTS\VISUAL STUDIO 2013\PROJECTS\DIAMOND SQUARE ALGORITHM\DIAMOND SQUARE ALGORITHM\X64\DEBUG\VC120.PDB
A:\USERS\GOAT\MY DOCUMENTS\VISUAL STUDIO 2013\PROJECTS\DIAMOND SQUARE ALGORITHM\DIAMOND SQUARE ALGORITHM\X64\DEBUG\VC120.IDB
A:\USERS\GOAT\MY DOCUMENTS\VISUAL STUDIO 2013\PROJECTS\DIAMOND SQUARE ALGORITHM\DIAMOND SQUARE ALGORITHM\X64\DEBUG\MARCHINGCUBES.OBJ
A:\USERS\GOAT\MY DOCUMENTS\VISUAL STUDIO 2013\PROJECTS\DIAMOND SQUARE ALGORITHM\DIAMOND SQUARE ALGORITHM\X64\DEBUG\MAIN.OBJ
A:\USERS\GOAT\MY DOCUMENTS\VISUAL STUDIO 2013\PROJECTS\DIAMOND SQUARE ALGORITHM\DIAMOND SQUARE ALGORITHM\X64\DEBUG\GAMEMODELS.OBJ
^A:\USERS\GOAT\MY DOCUMENTS\VISUAL STUDIO 2013\PROJECTS\DIAMOND SQUARE ALGORITHM\DIAMOND SQUARE ALGORITHM\MARCHINGCUBES\MARCHINGCUBES.CPP
A:\USERS\GOAT\MY DOCUMENTS\VISUAL STUDIO 2013\PROJECTS\DIAMOND SQUARE ALGORITHM\DIAMOND SQUARE ALGORITHM\X64\DEBUG\VC120.PDB
A:\USERS\GOAT\MY DOCUMENTS\VISUAL STUDIO 2013\PROJECTS\DIAMOND SQUARE ALGORITHM\DIAMOND SQUARE ALGORITHM\X64\DEBUG\VC120.IDB
A:\USERS\GOAT\MY DOCUMENTS\VISUAL STUDIO 2013\PROJECTS\DIAMOND SQUARE ALGORITHM\DIAMOND SQUARE ALGORITHM\X64\DEBUG\MARCHINGCUBES.OBJ
^A:\USERS\GOAT\MY DOCUMENTS\VISUAL STUDIO 2013\PROJECTS\DIAMOND SQUARE ALGORITHM\DIAMOND SQUARE ALGORITHM\MAIN.CPP|A:\USERS\GOAT\MY DOCUMENTS\VISUAL STUDIO 2013\PROJECTS\DIAMOND SQUARE ALGORITHM\DIAMOND SQUARE ALGORITHM\MARCHINGCUBES\MARCHINGCUBES.CPP
A:\USERS\GOAT\MY DOCUMENTS\VISUAL STUDIO 2013\PROJECTS\DIAMOND SQUARE ALGORITHM\DIAMOND SQUARE ALGORITHM\X64\DEBUG\VC120.PDB
A:\USERS\GOAT\MY DOCUMENTS\VISUAL STUDIO 2013\PROJECTS\DIAMOND SQUARE ALGORITHM\DIAMOND SQUARE ALGORITHM\X64\DEBUG\VC120.IDB
